project2/Working/PartB/lab_project_2_partA.sim/sim_1/impl/func/xsim/baud_controller_tb.vcd
$date
   Tue Oct 29 23:49:18 2024
$end

$version
  2024.1
  $dumpfile ("baud_controller_tb.vcd") 
$end

$timescale
  1ps
$end

$scope module baud_controller_tb $end
$var reg 1 ! clk $end
$var reg 1 " reset $end
$var reg 3 # baud_select [2:0] $end
$var wire 1 $ sample_ENABLE $end
$scope module baud_controller_bench $end
$var wire 3 % baud_select [2:0] $end
$var wire 3 & baud_select_IBUF [2:0] $end
$var wire 1 ' clk $end
$var wire 1 ( clk_IBUF $end
$var wire 1 ) clk_IBUF_BUFG $end
$var wire 15 * countMax [14:0] $end
$var wire 15 + countMaxPrev [14:0] $end
$var wire 1 , \countMaxPrev[7]_i_1_n_0  $end
$var wire 15 - counter [14:0] $end
$var wire 14 . counter0 [13:0] $end
$var wire 1 / \counter[14]_i_10_n_0  $end
$var wire 1 0 \counter[14]_i_11_n_0  $end
$var wire 1 1 \counter[14]_i_12_n_0  $end
$var wire 1 2 \counter[14]_i_13_n_0  $end
$var wire 1 3 \counter[14]_i_14_n_0  $end
$var wire 1 4 \counter[14]_i_15_n_0  $end
$var wire 1 5 \counter[14]_i_16_n_0  $end
$var wire 1 6 \counter[14]_i_6_n_0  $end
$var wire 1 7 \counter[14]_i_8_n_0  $end
$var wire 1 8 \counter[14]_i_9_n_0  $end
$var wire 1 9 \counter_reg[12]_i_2_n_0  $end
$var wire 1 : \counter_reg[14]_i_2_n_3  $end
$var wire 1 ; \counter_reg[14]_i_4_n_3  $end
$var wire 1 < \counter_reg[14]_i_5_n_0  $end
$var wire 1 = \counter_reg[14]_i_7_n_0  $end
$var wire 1 > \counter_reg[4]_i_2_n_0  $end
$var wire 1 ? \counter_reg[8]_i_2_n_0  $end
$var wire 15 @ p_0_in [14:0] $end
$var wire 1 A reset $end
$var wire 1 B reset_IBUF $end
$var wire 1 $ sample_ENABLE $end
$var wire 1 C sample_ENABLE_OBUF $end
$var wire 1 D sample_ENABLE_i_1_n_0 $end
$var wire 3 E \NLW_counter_reg[12]_i_2_CO_UNCONNECTED  [2:0] $end
$var wire 3 F \NLW_counter_reg[14]_i_2_CO_UNCONNECTED  [2:0] $end
$var wire 4 G \NLW_counter_reg[14]_i_2_O_UNCONNECTED  [3:0] $end
$var wire 4 H \NLW_counter_reg[14]_i_3_CO_UNCONNECTED  [3:0] $end
$var wire 2 I \NLW_counter_reg[14]_i_3_O_UNCONNECTED  [1:0] $end
$var wire 3 J \NLW_counter_reg[14]_i_4_CO_UNCONNECTED  [2:0] $end
$var wire 4 K \NLW_counter_reg[14]_i_4_O_UNCONNECTED  [3:0] $end
$var wire 3 L \NLW_counter_reg[14]_i_5_CO_UNCONNECTED  [2:0] $end
$var wire 4 M \NLW_counter_reg[14]_i_5_O_UNCONNECTED  [3:0] $end
$var wire 3 N \NLW_counter_reg[14]_i_7_CO_UNCONNECTED  [2:0] $end
$var wire 4 O \NLW_counter_reg[14]_i_7_O_UNCONNECTED  [3:0] $end
$var wire 3 P \NLW_counter_reg[4]_i_2_CO_UNCONNECTED  [2:0] $end
$var wire 3 Q \NLW_counter_reg[8]_i_2_CO_UNCONNECTED  [2:0] $end
$upscope $end
$upscope $end
$enddefinitions $end

#0
$dumpvars
0!
1"
b111 #
x$
b111 %
b111 &
0'
0(
0)
b0z0z000z0110110 *
bxzxzxxxxxxxxxxx +
0,
bx -
bx .
x/
x0
x1
x2
x3
x4
x5
x6
x7
x8
x9
x:
x;
x<
x=
x>
x?
bx @
1A
1B
xC
xD
bx E
b0 F
b0xx G
b0xx H
b0x I
b0 J
b0xx K
bx L
bx M
bx N
bx O
bx P
bx Q
$end

#100
0$
b0z0z00000000000 +
b0 -
b0 .
1/
00
01
12
13
04
05
16
17
18
09
0:
1;
0<
1=
0>
0?
b0 @
0C
0D
b0 E
b1 G
b0 H
b0 I
b10 K
b0 L
b1101 M
b111 N
b10 O
b0 P
b0 Q

#5000
1!
1'
1(
1)

#10000
0!
0'
0(
0)

#15000
1!
1'
1(
1)

#20000
0!
0'
0(
0)

#25000
1!
0"
1'
1(
1)
0A
0B

#30000
0!
0'
0(
0)

#35000
1!
1'
1(
1)

#40000
0!
0'
0(
0)

#45000
1!
1'
1(
1)

#50000
0!
0'
0(
0)

#55000
1!
1'
1(
1)

#60000
0!
0'
0(
0)

#65000
1!
1'
1(
1)

#70000
0!
0'
0(
0)

#75000
1!
1'
1(
1)

#80000
0!
0'
0(
0)

#85000
1!
1'
1(
1)

#90000
0!
0'
0(
0)

#95000
1!
1'
1(
1)

#100000
0!
0'
0(
0)

#105000
1!
1'
1(
1)

#105100
b0z0z00000110110 +
14
15
0;
0=
b1 @
b1 K
b0 N
b1111 O

#110000
0!
0'
0(
0)

#115000
1!
1'
1(
1)

#115100
b1 -
b1 .
b10 @

#120000
0!
0'
0(
0)

#125000
1!
1'
1(
1)

#125100
b10 -
b11 @

#130000
0!
0'
0(
0)

#135000
1!
1'
1(
1)

#135100
b11 -
b10 .
b100 @
b1 P

#140000
0!
0'
0(
0)

#145000
1!
1'
1(
1)

#145100
b100 -
b10 .
b101 @
b0 P

#150000
0!
0'
0(
0)

#155000
1!
1'
1(
1)

#155100
b101 -
b11 .
b110 @

#160000
0!
0'
0(
0)

#165000
1!
1'
1(
1)

#165100
b110 -
11
b111 @
b1 L
b1110 M

#170000
0!
0'
0(
0)

#175000
1!
1'
1(
1)

#175100
b111 -
b100 .
01
b1000 @
b0 L
b1101 M
b11 P

#180000
0!
0'
0(
0)

#185000
1!
1'
1(
1)

#185100
b1000 -
b100 .
b1001 @
b0 P

#190000
0!
0'
0(
0)

#195000
1!
1'
1(
1)

#195100
b1001 -
b101 .
b1010 @

#200000
0!
0'
0(
0)

#205000
1!
1'
1(
1)

#205100
b1010 -
b1011 @

#210000
0!
0'
0(
0)

#215000
1!
1'
1(
1)

#215100
b1011 -
b110 .
b1100 @
b1 P

#220000
0!
0'
0(
0)

#225000
1!
1'
1(
1)

#225100
b1100 -
b110 .
b1101 @
b0 P

#230000
0!
0'
0(
0)

#235000
1!
1'
1(
1)

#235100
b1101 -
b111 .
b1110 @

#240000
0!
0'
0(
0)

#245000
1!
1'
1(
1)

#245100
b1110 -
11
b1111 @
b1 L
b1110 M

#250000
0!
0'
0(
0)

#255000
1!
1'
1(
1)

#255100
b1111 -
b1000 .
01
b10000 @
b0 L
b1101 M
b111 P

#260000
0!
0'
0(
0)

#265000
1!
1'
1(
1)

#265100
b10000 -
b1000 .
0>
b10001 @
b0 P

#270000
0!
0'
0(
0)

#275000
1!
1'
1(
1)

#275100
b10001 -
b1001 .
b10010 @

#280000
0!
0'
0(
0)

#285000
1!
1'
1(
1)

#285100
b10010 -
b10011 @

#290000
0!
0'
0(
0)

#295000
1!
1'
1(
1)

#295100
b10011 -
b1010 .
b10100 @
b1 P

#300000
0!
0'
0(
0)

#305000
1!
1'
1(
1)

#305100
b10100 -
b1010 .
b10101 @
b0 P

#310000
0!
0'
0(
0)

#315000
1!
1'
1(
1)

#315100
b10101 -
b1011 .
b10110 @

#320000
0!
0'
0(
0)

#325000
1!
1'
1(
1)

#325100
b10110 -
11
b10111 @
b1 L
b1110 M

#330000
0!
0'
0(
0)

#335000
1!
1'
1(
1)

#335100
b10111 -
b1100 .
01
b11000 @
b0 L
b1101 M
b11 P

#340000
0!
0'
0(
0)

#345000
1!
1'
1(
1)

#345100
b11000 -
b1100 .
0>
b11001 @
b0 P

#350000
0!
0'
0(
0)

#355000
1!
1'
1(
1)

#355100
b11001 -
b1101 .
b11010 @

#360000
0!
0'
0(
0)

#365000
1!
1'
1(
1)

#365100
b11010 -
b11011 @

#370000
0!
0'
0(
0)

#375000
1!
1'
1(
1)

#375100
b11011 -
b1110 .
b11100 @
b1 P

#380000
0!
0'
0(
0)

#385000
1!
1'
1(
1)

#385100
b11100 -
b1110 .
0>
b11101 @
b0 P

#390000
0!
0'
0(
0)

#395000
1!
1'
1(
1)

#395100
b11101 -
b1111 .
b11110 @

#400000
0!
0'
0(
0)

#405000
1!
1'
1(
1)

#405100
b11110 -
11
b11111 @
b1 L
b1110 M

#410000
0!
0'
0(
0)

#415000
1!
1'
1(
1)

#415100
b11111 -
b10000 .
01
1>
b100000 @
b0 L
b1101 M
b111 P

#420000
0!
0'
0(
0)

#425000
1!
1'
1(
1)

#425100
b100000 -
b10000 .
0>
b100001 @
b0 P
b0 Q

#430000
0!
0'
0(
0)

#435000
1!
1'
1(
1)

#435100
b100001 -
b10001 .
b100010 @

#440000
0!
0'
0(
0)

#445000
1!
1'
1(
1)

#445100
b100010 -
b100011 @

#450000
0!
0'
0(
0)

#455000
1!
1'
1(
1)

#455100
b100011 -
b10010 .
b100100 @
b1 P

#460000
0!
0'
0(
0)

#465000
1!
1'
1(
1)

#465100
b100100 -
b10010 .
b100101 @
b0 P

#470000
0!
0'
0(
0)

#475000
1!
1'
1(
1)

#475100
b100101 -
b10011 .
b100110 @

#480000
0!
0'
0(
0)

#485000
1!
1'
1(
1)

#485100
b100110 -
11
b100111 @
b1 L
b1110 M

#490000
0!
0'
0(
0)

#495000
1!
1'
1(
1)

#495100
b100111 -
b10100 .
01
b101000 @
b0 L
b1101 M
b11 P

#500000
0!
0'
0(
0)

#505000
1!
1'
1(
1)

#505100
b101000 -
b10100 .
b101001 @
b0 P

#510000
0!
0'
0(
0)

#515000
1!
1'
1(
1)

#515100
b101001 -
b10101 .
b101010 @

#520000
0!
0'
0(
0)

#525000
1!
1'
1(
1)

#525100
b101010 -
b101011 @

#530000
0!
0'
0(
0)

#535000
1!
1'
1(
1)

#535100
b101011 -
b10110 .
b101100 @
b1 P

#540000
0!
0'
0(
0)

#545000
1!
1'
1(
1)

#545100
b101100 -
b10110 .
b101101 @
b0 P

#550000
0!
0'
0(
0)

#555000
1!
1'
1(
1)

#555100
b101101 -
b10111 .
b101110 @

#560000
0!
0'
0(
0)

#565000
1!
1'
1(
1)

#565100
b101110 -
11
b101111 @
b1 L
b1110 M

#570000
0!
0'
0(
0)

#575000
1!
1'
1(
1)

#575100
b101111 -
b11000 .
01
b110000 @
b0 L
b1101 M
b111 P

#580000
0!
0'
0(
0)

#585000
1!
1'
1(
1)

#585100
b110000 -
b11000 .
10
0>
b110001 @
b1111 M
b0 P
b0 Q

#590000
0!
0'
0(
0)

#595000
1!
1'
1(
1)

#595100
b110001 -
b11001 .
b110010 @

#600000
0!
0'
0(
0)

#605000
1!
1'
1(
1)

#605100
b110010 -
b110011 @

#610000
0!
0'
0(
0)

#615000
1!
1'
1(
1)

#615100
b110011 -
b11010 .
b110100 @
b1 P

#620000
0!
0'
0(
0)

#625000
1!
1'
1(
1)

#625100
b110100 -
b11010 .
b110101 @
b0 P

#630000
0!
0'
0(
0)

#635000
1!
1'
1(
1)

#635100
b110101 -
b11011 .
b110110 @

#640000
0!
0'
0(
0)

#645000
1!
1'
1(
1)

#645100
b110110 -
11
1:
1<
b0 @
1D
b10 G
b111 L
b0 M

#650000
0!
0'
0(
0)

#655000
1!
1'
1(
1)

#655100
1$
b0 -
b0 .
00
01
0:
0<
b1 @
1C
0D
b1 G
b0 L
b1101 M

#660000
0!
0'
0(
0)

#665000
1!
1'
1(
1)

#665100
0$
b1 -
b1 .
b10 @
0C

#670000
0!
0'
0(
0)

#675000
1!
1'
1(
1)

#675100
b10 -
b11 @

#680000
0!
0'
0(
0)

#685000
1!
1'
1(
1)

#685100
b11 -
b10 .
b100 @
b1 P

#690000
0!
0'
0(
0)

#695000
1!
1'
1(
1)

#695100
b100 -
b10 .
b101 @
b0 P

#700000
0!
0'
0(
0)

#705000
1!
1'
1(
1)

#705100
b101 -
b11 .
b110 @

#710000
0!
0'
0(
0)

#715000
1!
1'
1(
1)

#715100
b110 -
11
b111 @
b1 L
b1110 M

#720000
0!
0'
0(
0)

#725000
1!
1'
1(
1)

#725100
b111 -
b100 .
01
b1000 @
b0 L
b1101 M
b11 P

#730000
0!
0'
0(
0)

#735000
1!
1'
1(
1)

#735100
b1000 -
b100 .
b1001 @
b0 P

#740000
0!
0'
0(
0)

#745000
1!
1'
1(
1)

#745100
b1001 -
b101 .
b1010 @

#750000
0!
0'
0(
0)

#755000
1!
1'
1(
1)

#755100
b1010 -
b1011 @

#760000
0!
0'
0(
0)

#765000
1!
1'
1(
1)

#765100
b1011 -
b110 .
b1100 @
b1 P

#770000
0!
0'
0(
0)

#775000
1!
1'
1(
1)

#775100
b1100 -
b110 .
b1101 @
b0 P

#780000
0!
0'
0(
0)

#785000
1!
1'
1(
1)

#785100
b1101 -
b111 .
b1110 @

#790000
0!
0'
0(
0)

#795000
1!
1'
1(
1)

#795100
b1110 -
11
b1111 @
b1 L
b1110 M

#800000
0!
0'
0(
0)

#805000
1!
1'
1(
1)

#805100
b1111 -
b1000 .
01
b10000 @
b0 L
b1101 M
b111 P

#810000
0!
0'
0(
0)

#815000
1!
1'
1(
1)

#815100
b10000 -
b1000 .
0>
b10001 @
b0 P

#820000
0!
0'
0(
0)

#825000
1!
1'
1(
1)

#825100
b10001 -
b1001 .
b10010 @

#830000
0!
0'
0(
0)

#835000
1!
1'
1(
1)

#835100
b10010 -
b10011 @

#840000
0!
0'
0(
0)

#845000
1!
1'
1(
1)

#845100
b10011 -
b1010 .
b10100 @
b1 P

#850000
0!
0'
0(
0)

#855000
1!
1'
1(
1)

#855100
b10100 -
b1010 .
b10101 @
b0 P

#860000
0!
0'
0(
0)

#865000
1!
1'
1(
1)

#865100
b10101 -
b1011 .
b10110 @

#870000
0!
0'
0(
0)

#875000
1!
1'
1(
1)

#875100
b10110 -
11
b10111 @
b1 L
b1110 M

#880000
0!
0'
0(
0)

#885000
1!
1'
1(
1)

#885100
b10111 -
b1100 .
01
b11000 @
b0 L
b1101 M
b11 P

#890000
0!
0'
0(
0)

#895000
1!
1'
1(
1)

#895100
b11000 -
b1100 .
0>
b11001 @
b0 P

#900000
0!
0'
0(
0)

#905000
1!
1'
1(
1)

#905100
b11001 -
b1101 .
b11010 @

#910000
0!
0'
0(
0)

#915000
1!
1'
1(
1)

#915100
b11010 -
b11011 @

#920000
0!
0'
0(
0)

#925000
1!
1'
1(
1)

#925100
b11011 -
b1110 .
b11100 @
b1 P

#930000
0!
0'
0(
0)

#935000
1!
1'
1(
1)

#935100
b11100 -
b1110 .
0>
b11101 @
b0 P

#940000
0!
0'
0(
0)

#945000
1!
1'
1(
1)

#945100
b11101 -
b1111 .
b11110 @

#950000
0!
0'
0(
0)

#955000
1!
1'
1(
1)

#955100
b11110 -
11
b11111 @
b1 L
b1110 M

#960000
0!
0'
0(
0)

#965000
1!
1'
1(
1)

#965100
b11111 -
b10000 .
01
1>
b100000 @
b0 L
b1101 M
b111 P

#970000
0!
0'
0(
0)

#975000
1!
1'
1(
1)

#975100
b100000 -
b10000 .
0>
b100001 @
b0 P
b0 Q

#980000
0!
0'
0(
0)

#985000
1!
1'
1(
1)

#985100
b100001 -
b10001 .
b100010 @

#990000
0!
0'
0(
0)

#995000
1!
1'
1(
1)

#995100
b100010 -
b100011 @

