project2/Working/PartD/lab_project_2_partA.sim/sim_1/behav/xsim/baud_controller_tb.vcd
$date
   Tue Oct 29 22:19:33 2024
$end

$version
  2024.1
  $dumpfile ("baud_controller_tb.vcd") 
$end

$timescale
  1ps
$end

$scope module baud_controller_tb $end
$var reg 1 ! clk $end
$var reg 1 " reset $end
$var reg 3 # baud_select [2:0] $end
$var wire 1 $ sample_ENABLE $end
$scope module baud_controller_bench $end
$var wire 1 % clk $end
$var wire 1 & reset $end
$var wire 3 ' baud_select [2:0] $end
$var reg 1 ( sample_ENABLE $end
$var reg 17 ) baudRate [16:0] $end
$var reg 21 * sampleFrequency [20:0] $end
$var reg 15 + counter [14:0] $end
$var reg 15 , countMax [14:0] $end
$upscope $end
$upscope $end
$enddefinitions $end

#0
$dumpvars
0!
1"
b0 #
0$
0%
1&
b0 '
0(
b0 )
bx *
b0 +
b0 ,
$end

#5000
1!
1%

#10000
0!
0%

#15000
1!
1%

#20000
0!
0%

#25000
1!
0"
1$
1%
0&
1(
b100101100 )
b101000101100001 ,

#30000
0!
0%

#35000
1!
0$
1%
0(
b1 +

#40000
0!
0%

#45000
1!
1%
b10 +

#50000
0!
0%

#55000
1!
1%
b11 +

#60000
0!
0%

#65000
1!
1%
b100 +

#70000
0!
0%

#75000
1!
1%
b101 +

#80000
0!
0%

#85000
1!
1%
b110 +

#90000
0!
0%

#95000
1!
1%
b111 +

#100000
0!
0%

#105000
1!
1%
b1000 +

#110000
0!
0%

#115000
1!
1%
b1001 +

#120000
0!
0%

#125000
1!
1%
b1010 +

#130000
0!
0%

#135000
1!
1%
b1011 +

#140000
0!
0%

#145000
1!
1%
b1100 +

#150000
0!
0%

#155000
1!
1%
b1101 +

#160000
0!
0%

#165000
1!
1%
b1110 +

#170000
0!
0%

#175000
1!
1%
b1111 +

#180000
0!
0%

#185000
1!
1%
b10000 +

#190000
0!
0%

#195000
1!
1%
b10001 +

#200000
0!
0%

#205000
1!
1%
b10010 +

#210000
0!
0%

#215000
1!
1%
b10011 +

#220000
0!
0%

#225000
1!
1%
b10100 +

#230000
0!
0%

#235000
1!
1%
b10101 +

#240000
0!
0%

#245000
1!
1%
b10110 +

#250000
0!
0%

#255000
1!
1%
b10111 +

#260000
0!
0%

#265000
1!
1%
b11000 +

#270000
0!
0%

#275000
1!
1%
b11001 +

#280000
0!
0%

#285000
1!
1%
b11010 +

#290000
0!
0%

#295000
1!
1%
b11011 +

#300000
0!
0%

#305000
1!
1%
b11100 +

#310000
0!
0%

#315000
1!
1%
b11101 +

#320000
0!
0%

#325000
1!
1%
b11110 +

#330000
0!
0%

#335000
1!
1%
b11111 +

#340000
0!
0%

#345000
1!
1%
b100000 +

#350000
0!
0%

#355000
1!
1%
b100001 +

#360000
0!
0%

#365000
1!
1%
b100010 +

#370000
0!
0%

#375000
1!
1%
b100011 +

#380000
0!
0%

#385000
1!
1%
b100100 +

#390000
0!
0%

#395000
1!
1%
b100101 +

#400000
0!
0%

#405000
1!
1%
b100110 +

#410000
0!
0%

#415000
1!
1%
b100111 +

#420000
0!
0%

#425000
1!
1%
b101000 +

#430000
0!
0%

#435000
1!
1%
b101001 +

#440000
0!
0%

#445000
1!
1%
b101010 +

#450000
0!
0%

#455000
1!
1%
b101011 +

#460000
0!
0%

#465000
1!
1%
b101100 +

#470000
0!
0%

#475000
1!
1%
b101101 +

#480000
0!
0%

#485000
1!
1%
b101110 +

#490000
0!
0%

#495000
1!
1%
b101111 +

#500000
0!
0%

#505000
1!
1%
b110000 +

#510000
0!
0%

#515000
1!
1%
b110001 +

#520000
0!
0%

#525000
1!
1%
b110010 +

#530000
0!
0%

#535000
1!
1%
b110011 +

#540000
0!
0%

#545000
1!
1%
b110100 +

#550000
0!
0%

#555000
1!
1%
b110101 +

#560000
0!
0%

#565000
1!
1%
b110110 +

#570000
0!
0%

#575000
1!
1%
b110111 +

#580000
0!
0%

#585000
1!
1%
b111000 +

#590000
0!
0%

#595000
1!
1%
b111001 +

#600000
0!
0%

#605000
1!
1%
b111010 +

#610000
0!
0%

#615000
1!
1%
b111011 +

#620000
0!
0%

#625000
1!
1%
b111100 +

#630000
0!
0%

#635000
1!
1%
b111101 +

#640000
0!
0%

#645000
1!
1%
b111110 +

#650000
0!
0%

#655000
1!
1%
b111111 +

#660000
0!
0%

#665000
1!
1%
b1000000 +

#670000
0!
0%

#675000
1!
1%
b1000001 +

#680000
0!
0%

#685000
1!
1%
b1000010 +

#690000
0!
0%

#695000
1!
1%
b1000011 +

#700000
0!
0%

#705000
1!
1%
b1000100 +

#710000
0!
0%

#715000
1!
1%
b1000101 +

#720000
0!
0%

#725000
1!
1%
b1000110 +

#730000
0!
0%

#735000
1!
1%
b1000111 +

#740000
0!
0%

#745000
1!
1%
b1001000 +

#750000
0!
0%

#755000
1!
1%
b1001001 +

#760000
0!
0%

#765000
1!
1%
b1001010 +

#770000
0!
0%

#775000
1!
1%
b1001011 +

#780000
0!
0%

#785000
1!
1%
b1001100 +

#790000
0!
0%

#795000
1!
1%
b1001101 +

#800000
0!
0%

#805000
1!
1%
b1001110 +

#810000
0!
0%

#815000
1!
1%
b1001111 +

#820000
0!
0%

#825000
1!
1%
b1010000 +

#830000
0!
0%

#835000
1!
1%
b1010001 +

#840000
0!
0%

#845000
1!
1%
b1010010 +

#850000
0!
0%

#855000
1!
1%
b1010011 +

#860000
0!
0%

#865000
1!
1%
b1010100 +

#870000
0!
0%

#875000
1!
1%
b1010101 +

#880000
0!
0%

#885000
1!
1%
b1010110 +

#890000
0!
0%

#895000
1!
1%
b1010111 +

#900000
0!
0%

#905000
1!
1%
b1011000 +

#910000
0!
0%

#915000
1!
1%
b1011001 +

#920000
0!
0%

#925000
1!
1%
b1011010 +

#930000
0!
0%

#935000
1!
1%
b1011011 +

#940000
0!
0%

#945000
1!
1%
b1011100 +

#950000
0!
0%

#955000
1!
1%
b1011101 +

#960000
0!
0%

#965000
1!
1%
b1011110 +

#970000
0!
0%

#975000
1!
1%
b1011111 +

#980000
0!
0%

#985000
1!
1%
b1100000 +

#990000
0!
0%

#995000
1!
1%
b1100001 +

#1000000
0!
0%

#1005000
1!
1%
b1100010 +

#1010000
0!
0%

#1015000
1!
1%
b1100011 +

#1020000
0!
0%

#1025000
1!
1%
b1100100 +

#1030000
0!
0%

#1035000
1!
1%
b1100101 +

#1040000
0!
0%

#1045000
1!
1%
b1100110 +

#1050000
0!
0%

#1055000
1!
1%
b1100111 +

#1060000
0!
0%

#1065000
1!
1%
b1101000 +

#1070000
0!
0%

#1075000
1!
1%
b1101001 +

#1080000
0!
0%

#1085000
1!
1%
b1101010 +

#1090000
0!
0%

#1095000
1!
1%
b1101011 +

#1100000
0!
0%

#1105000
1!
1%
b1101100 +

#1110000
0!
0%

#1115000
1!
1%
b1101101 +

#1120000
0!
0%

#1125000
1!
1%
b1101110 +

#1130000
0!
0%

#1135000
1!
1%
b1101111 +

#1140000
0!
0%

#1145000
1!
1%
b1110000 +

#1150000
0!
0%

#1155000
1!
1%
b1110001 +

#1160000
0!
0%

#1165000
1!
1%
b1110010 +

#1170000
0!
0%

#1175000
1!
1%
b1110011 +

#1180000
0!
0%

#1185000
1!
1%
b1110100 +

#1190000
0!
0%

#1195000
1!
1%
b1110101 +

#1200000
0!
0%

#1205000
1!
1%
b1110110 +

#1210000
0!
0%

#1215000
1!
1%
b1110111 +

#1220000
0!
0%

#1225000
1!
1%
b1111000 +

#1230000
0!
0%

#1235000
1!
1%
b1111001 +

#1240000
0!
0%

#1245000
1!
1%
b1111010 +

#1250000
0!
0%

#1255000
1!
1%
b1111011 +

#1260000
0!
0%

#1265000
1!
1%
b1111100 +

#1270000
0!
0%

#1275000
1!
1%
b1111101 +

#1280000
0!
0%

#1285000
1!
1%
b1111110 +

#1290000
0!
0%

#1295000
1!
1%
b1111111 +

#1300000
0!
0%

#1305000
1!
1%
b10000000 +

#1310000
0!
0%

#1315000
1!
1%
b10000001 +

#1320000
0!
0%

#1325000
1!
1%
b10000010 +

#1330000
0!
0%

#1335000
1!
1%
b10000011 +

#1340000
0!
0%

#1345000
1!
1%
b10000100 +

#1350000
0!
0%

#1355000
1!
1%
b10000101 +

#1360000
0!
0%

#1365000
1!
1%
b10000110 +

#1370000
0!
0%

#1375000
1!
1%
b10000111 +

#1380000
0!
0%

#1385000
1!
1%
b10001000 +

#1390000
0!
0%

#1395000
1!
1%
b10001001 +

#1400000
0!
0%

#1405000
1!
1%
b10001010 +

#1410000
0!
0%

#1415000
1!
1%
b10001011 +

#1420000
0!
0%

#1425000
1!
1%
b10001100 +

#1430000
0!
0%

#1435000
1!
1%
b10001101 +

#1440000
0!
0%

#1445000
1!
1%
b10001110 +

#1450000
0!
0%

#1455000
1!
1%
b10001111 +

#1460000
0!
0%

#1465000
1!
1%
b10010000 +

#1470000
0!
0%

#1475000
1!
1%
b10010001 +

#1480000
0!
0%

#1485000
1!
1%
b10010010 +

#1490000
0!
0%

#1495000
1!
1%
b10010011 +

#1500000
0!
b1 #
0%
b1 '

#1505000
1!
1%
b10010110000 )
b10010100 +
b1010001011000 ,

#1510000
0!
0%

#1515000
1!
1%
b10010101 +

#1520000
0!
0%

#1525000
1!
1%
b10010110 +

#1530000
0!
0%

#1535000
1!
1%
b10010111 +

#1540000
0!
0%

#1545000
1!
1%
b10011000 +

#1550000
0!
0%

#1555000
1!
1%
b10011001 +

#1560000
0!
0%

#1565000
1!
1%
b10011010 +

#1570000
0!
0%

#1575000
1!
1%
b10011011 +

#1580000
0!
0%

#1585000
1!
1%
b10011100 +

#1590000
0!
0%

#1595000
1!
1%
b10011101 +

#1600000
0!
0%

#1605000
1!
1%
b10011110 +

#1610000
0!
0%

#1615000
1!
1%
b10011111 +

#1620000
0!
0%

#1625000
1!
1%
b10100000 +

#1630000
0!
0%

#1635000
1!
1%
b10100001 +

#1640000
0!
0%

#1645000
1!
1%
b10100010 +

#1650000
0!
0%

#1655000
1!
1%
b10100011 +

#1660000
0!
0%

#1665000
1!
1%
b10100100 +

#1670000
0!
0%

#1675000
1!
1%
b10100101 +

#1680000
0!
0%

#1685000
1!
1%
b10100110 +

#1690000
0!
0%

#1695000
1!
1%
b10100111 +

#1700000
0!
0%

#1705000
1!
1%
b10101000 +

#1710000
0!
0%

#1715000
1!
1%
b10101001 +

#1720000
0!
0%

#1725000
1!
1%
b10101010 +

#1730000
0!
0%

#1735000
1!
1%
b10101011 +

#1740000
0!
0%

#1745000
1!
1%
b10101100 +

#1750000
0!
0%

#1755000
1!
1%
b10101101 +

#1760000
0!
0%

#1765000
1!
1%
b10101110 +

#1770000
0!
0%

#1775000
1!
1%
b10101111 +

#1780000
0!
0%

#1785000
1!
1%
b10110000 +

#1790000
0!
0%

#1795000
1!
1%
b10110001 +

#1800000
0!
0%

#1805000
1!
1%
b10110010 +

#1810000
0!
0%

#1815000
1!
1%
b10110011 +

#1820000
0!
0%

#1825000
1!
1%
b10110100 +

#1830000
0!
0%

#1835000
1!
1%
b10110101 +

#1840000
0!
0%

#1845000
1!
1%
b10110110 +

#1850000
0!
0%

#1855000
1!
1%
b10110111 +

#1860000
0!
0%

#1865000
1!
1%
b10111000 +

#1870000
0!
0%

#1875000
1!
1%
b10111001 +

#1880000
0!
0%

#1885000
1!
1%
b10111010 +

#1890000
0!
0%

#1895000
1!
1%
b10111011 +

#1900000
0!
0%

#1905000
1!
1%
b10111100 +

#1910000
0!
0%

#1915000
1!
1%
b10111101 +

#1920000
0!
0%

#1925000
1!
1%
b10111110 +

#1930000
0!
0%

#1935000
1!
1%
b10111111 +

#1940000
0!
0%

#1945000
1!
1%
b11000000 +

#1950000
0!
0%

#1955000
1!
1%
b11000001 +

#1960000
0!
0%

#1965000
1!
1%
b11000010 +

#1970000
0!
0%

#1975000
1!
1%
b11000011 +

#1980000
0!
0%

#1985000
1!
1%
b11000100 +

#1990000
0!
0%

#1995000
1!
1%
b11000101 +

#2000000
0!
0%

#2005000
1!
1%
b11000110 +

#2010000
0!
0%

#2015000
1!
1%
b11000111 +

#2020000
0!
0%

#2025000
1!
1%
b11001000 +

#2030000
0!
0%

#2035000
1!
1%
b11001001 +

#2040000
0!
0%

#2045000
1!
1%
b11001010 +

#2050000
0!
0%

#2055000
1!
1%
b11001011 +

#2060000
0!
0%

#2065000
1!
1%
b11001100 +

#2070000
0!
0%

#2075000
1!
1%
b11001101 +

#2080000
0!
0%

#2085000
1!
1%
b11001110 +

#2090000
0!
0%

#2095000
1!
1%
b11001111 +

#2100000
0!
0%

#2105000
1!
1%
b11010000 +

#2110000
0!
0%

#2115000
1!
1%
b11010001 +

#2120000
0!
0%

#2125000
1!
1%
b11010010 +

#2130000
0!
0%

#2135000
1!
1%
b11010011 +

#2140000
0!
0%

#2145000
1!
1%
b11010100 +

#2150000
0!
0%

#2155000
1!
1%
b11010101 +

#2160000
0!
0%

#2165000
1!
1%
b11010110 +

#2170000
0!
0%

#2175000
1!
1%
b11010111 +

#2180000
0!
0%

#2185000
1!
1%
b11011000 +

#2190000
0!
0%

#2195000
1!
1%
b11011001 +

#2200000
0!
0%

#2205000
1!
1%
b11011010 +

#2210000
0!
0%

#2215000
1!
1%
b11011011 +

#2220000
0!
0%

#2225000
1!
1%
b11011100 +

#2230000
0!
0%

#2235000
1!
1%
b11011101 +

#2240000
0!
0%

#2245000
1!
1%
b11011110 +

#2250000
0!
0%

#2255000
1!
1%
b11011111 +

#2260000
0!
0%

#2265000
1!
1%
b11100000 +

#2270000
0!
0%

#2275000
1!
1%
b11100001 +

#2280000
0!
0%

#2285000
1!
1%
b11100010 +

#2290000
0!
0%

#2295000
1!
1%
b11100011 +

#2300000
0!
0%

#2305000
1!
1%
b11100100 +

#2310000
0!
0%

#2315000
1!
1%
b11100101 +

#2320000
0!
0%

#2325000
1!
1%
b11100110 +

#2330000
0!
0%

#2335000
1!
1%
b11100111 +

#2340000
0!
0%

#2345000
1!
1%
b11101000 +

#2350000
0!
0%

#2355000
1!
1%
b11101001 +

#2360000
0!
0%

#2365000
1!
1%
b11101010 +

#2370000
0!
0%

#2375000
1!
1%
b11101011 +

#2380000
0!
0%

#2385000
1!
1%
b11101100 +

#2390000
0!
0%

#2395000
1!
1%
b11101101 +

#2400000
0!
0%

#2405000
1!
1%
b11101110 +

#2410000
0!
0%

#2415000
1!
1%
b11101111 +

#2420000
0!
0%

#2425000
1!
1%
b11110000 +

#2430000
0!
0%

#2435000
1!
1%
b11110001 +

#2440000
0!
0%

#2445000
1!
1%
b11110010 +

#2450000
0!
0%

#2455000
1!
1%
b11110011 +

#2460000
0!
0%

#2465000
1!
1%
b11110100 +

#2470000
0!
0%

#2475000
1!
1%
b11110101 +

#2480000
0!
0%

#2485000
1!
1%
b11110110 +

#2490000
0!
0%

#2495000
1!
1%
b11110111 +

#2500000
0!
0%

#2505000
1!
1%
b11111000 +

#2510000
0!
0%

#2515000
1!
1%
b11111001 +

#2520000
0!
0%

#2525000
1!
1%
b11111010 +

#2530000
0!
0%

#2535000
1!
1%
b11111011 +

#2540000
0!
0%

#2545000
1!
1%
b11111100 +

#2550000
0!
0%

#2555000
1!
1%
b11111101 +

#2560000
0!
0%

#2565000
1!
1%
b11111110 +

#2570000
0!
0%

#2575000
1!
1%
b11111111 +

#2580000
0!
0%

#2585000
1!
1%
b100000000 +

#2590000
0!
0%

#2595000
1!
1%
b100000001 +

#2600000
0!
0%

#2605000
1!
1%
b100000010 +

#2610000
0!
0%

#2615000
1!
1%
b100000011 +

#2620000
0!
0%

#2625000
1!
1%
b100000100 +

#2630000
0!
0%

#2635000
1!
1%
b100000101 +

#2640000
0!
0%

#2645000
1!
1%
b100000110 +

#2650000
0!
0%

#2655000
1!
1%
b100000111 +

#2660000
0!
0%

#2665000
1!
1%
b100001000 +

#2670000
0!
0%

#2675000
1!
1%
b100001001 +

#2680000
0!
0%

#2685000
1!
1%
b100001010 +

#2690000
0!
0%

#2695000
1!
1%
b100001011 +

#2700000
0!
0%

#2705000
1!
1%
b100001100 +

#2710000
0!
0%

#2715000
1!
1%
b100001101 +

#2720000
0!
0%

#2725000
1!
1%
b100001110 +

#2730000
0!
0%

#2735000
1!
1%
b100001111 +

#2740000
0!
0%

#2745000
1!
1%
b100010000 +

#2750000
0!
0%

#2755000
1!
1%
b100010001 +

#2760000
0!
0%

#2765000
1!
1%
b100010010 +

#2770000
0!
0%

#2775000
1!
1%
b100010011 +

#2780000
0!
0%

#2785000
1!
1%
b100010100 +

#2790000
0!
0%

#2795000
1!
1%
b100010101 +

#2800000
0!
0%

#2805000
1!
1%
b100010110 +

#2810000
0!
0%

#2815000
1!
1%
b100010111 +

#2820000
0!
0%

#2825000
1!
1%
b100011000 +

#2830000
0!
0%

#2835000
1!
1%
b100011001 +

#2840000
0!
0%

#2845000
1!
1%
b100011010 +

#2850000
0!
0%

#2855000
1!
1%
b100011011 +

#2860000
0!
0%

#2865000
1!
1%
b100011100 +

#2870000
0!
0%

#2875000
1!
1%
b100011101 +

#2880000
0!
0%

#2885000
1!
1%
b100011110 +

#2890000
0!
0%

#2895000
1!
1%
b100011111 +

#2900000
0!
0%

#2905000
1!
1%
b100100000 +

#2910000
0!
0%

#2915000
1!
1%
b100100001 +

#2920000
0!
0%

#2925000
1!
1%
b100100010 +

#2930000
0!
0%

#2935000
1!
1%
b100100011 +

#2940000
0!
0%

#2945000
1!
1%
b100100100 +

#2950000
0!
0%

#2955000
1!
1%
b100100101 +

#2960000
0!
0%

#2965000
1!
1%
b100100110 +

#2970000
0!
0%

#2975000
1!
1%
b100100111 +

#2980000
0!
0%

#2985000
1!
1%
b100101000 +

#2990000
0!
0%

#2995000
1!
1%
b100101001 +

#3000000
0!
b10 #
0%
b10 '

#3005000
1!
1%
b1001011000000 )
b100101010 +
b10100010110 ,

#3010000
0!
0%

#3015000
1!
1%
b100101011 +

#3020000
0!
0%

#3025000
1!
1%
b100101100 +

#3030000
0!
0%

#3035000
1!
1%
b100101101 +

#3040000
0!
0%

#3045000
1!
1%
b100101110 +

#3050000
0!
0%

#3055000
1!
1%
b100101111 +

#3060000
0!
0%

#3065000
1!
1%
b100110000 +

#3070000
0!
0%

#3075000
1!
1%
b100110001 +

#3080000
0!
0%

#3085000
1!
1%
b100110010 +

#3090000
0!
0%

#3095000
1!
1%
b100110011 +

#3100000
0!
0%

#3105000
1!
1%
b100110100 +

#3110000
0!
0%

#3115000
1!
1%
b100110101 +

#3120000
0!
0%

#3125000
1!
1%
b100110110 +

#3130000
0!
0%

#3135000
1!
1%
b100110111 +

#3140000
0!
0%

#3145000
1!
1%
b100111000 +

#3150000
0!
0%

#3155000
1!
1%
b100111001 +

#3160000
0!
0%

#3165000
1!
1%
b100111010 +

#3170000
0!
0%

#3175000
1!
1%
b100111011 +

#3180000
0!
0%

#3185000
1!
1%
b100111100 +

#3190000
0!
0%

#3195000
1!
1%
b100111101 +

#3200000
0!
0%

#3205000
1!
1%
b100111110 +

#3210000
0!
0%

#3215000
1!
1%
b100111111 +

#3220000
0!
0%

#3225000
1!
1%
b101000000 +

#3230000
0!
0%

#3235000
1!
1%
b101000001 +

#3240000
0!
0%

#3245000
1!
1%
b101000010 +

#3250000
0!
0%

#3255000
1!
1%
b101000011 +

#3260000
0!
0%

#3265000
1!
1%
b101000100 +

#3270000
0!
0%

#3275000
1!
1%
b101000101 +

#3280000
0!
0%

#3285000
1!
1%
b101000110 +

#3290000
0!
0%

#3295000
1!
1%
b101000111 +

#3300000
0!
0%

#3305000
1!
1%
b101001000 +

#3310000
0!
0%

#3315000
1!
1%
b101001001 +

#3320000
0!
0%

#3325000
1!
1%
b101001010 +

#3330000
0!
0%

#3335000
1!
1%
b101001011 +

#3340000
0!
0%

#3345000
1!
1%
b101001100 +

#3350000
0!
0%

#3355000
1!
1%
b101001101 +

#3360000
0!
0%

#3365000
1!
1%
b101001110 +

#3370000
0!
0%

#3375000
1!
1%
b101001111 +

#3380000
0!
0%

#3385000
1!
1%
b101010000 +

#3390000
0!
0%

#3395000
1!
1%
b101010001 +

#3400000
0!
0%

#3405000
1!
1%
b101010010 +

#3410000
0!
0%

#3415000
1!
1%
b101010011 +

#3420000
0!
0%

#3425000
1!
1%
b101010100 +

#3430000
0!
0%

#3435000
1!
1%
b101010101 +

#3440000
0!
0%

#3445000
1!
1%
b101010110 +

#3450000
0!
0%

#3455000
1!
1%
b101010111 +

#3460000
0!
0%

#3465000
1!
1%
b101011000 +

#3470000
0!
0%

#3475000
1!
1%
b101011001 +

#3480000
0!
0%

#3485000
1!
1%
b101011010 +

#3490000
0!
0%

#3495000
1!
1%
b101011011 +

#3500000
0!
0%

#3505000
1!
1%
b101011100 +

#3510000
0!
0%

#3515000
1!
1%
b101011101 +

#3520000
0!
0%

#3525000
1!
1%
b101011110 +

#3530000
0!
0%

#3535000
1!
1%
b101011111 +

#3540000
0!
0%

#3545000
1!
1%
b101100000 +

#3550000
0!
0%

#3555000
1!
1%
b101100001 +

#3560000
0!
0%

#3565000
1!
1%
b101100010 +

#3570000
0!
0%

#3575000
1!
1%
b101100011 +

#3580000
0!
0%

#3585000
1!
1%
b101100100 +

#3590000
0!
0%

#3595000
1!
1%
b101100101 +

#3600000
0!
0%

#3605000
1!
1%
b101100110 +

#3610000
0!
0%

#3615000
1!
1%
b101100111 +

#3620000
0!
0%

#3625000
1!
1%
b101101000 +

#3630000
0!
0%

#3635000
1!
1%
b101101001 +

#3640000
0!
0%

#3645000
1!
1%
b101101010 +

#3650000
0!
0%

#3655000
1!
1%
b101101011 +

#3660000
0!
0%

#3665000
1!
1%
b101101100 +

#3670000
0!
0%

#3675000
1!
1%
b101101101 +

#3680000
0!
0%

#3685000
1!
1%
b101101110 +

#3690000
0!
0%

#3695000
1!
1%
b101101111 +

#3700000
0!
0%

#3705000
1!
1%
b101110000 +

#3710000
0!
0%

#3715000
1!
1%
b101110001 +

#3720000
0!
0%

#3725000
1!
1%
b101110010 +

#3730000
0!
0%

#3735000
1!
1%
b101110011 +

#3740000
0!
0%

#3745000
1!
1%
b101110100 +

#3750000
0!
0%

#3755000
1!
1%
b101110101 +

#3760000
0!
0%

#3765000
1!
1%
b101110110 +

#3770000
0!
0%

#3775000
1!
1%
b101110111 +

#3780000
0!
0%

#3785000
1!
1%
b101111000 +

#3790000
0!
0%

#3795000
1!
1%
b101111001 +

#3800000
0!
0%

#3805000
1!
1%
b101111010 +

#3810000
0!
0%

#3815000
1!
1%
b101111011 +

#3820000
0!
0%

#3825000
1!
1%
b101111100 +

#3830000
0!
0%

#3835000
1!
1%
b101111101 +

#3840000
0!
0%

#3845000
1!
1%
b101111110 +

#3850000
0!
0%

#3855000
1!
1%
b101111111 +

#3860000
0!
0%

#3865000
1!
1%
b110000000 +

#3870000
0!
0%

#3875000
1!
1%
b110000001 +

#3880000
0!
0%

#3885000
1!
1%
b110000010 +

#3890000
0!
0%

#3895000
1!
1%
b110000011 +

#3900000
0!
0%

#3905000
1!
1%
b110000100 +

#3910000
0!
0%

#3915000
1!
1%
b110000101 +

#3920000
0!
0%

#3925000
1!
1%
b110000110 +

#3930000
0!
0%

#3935000
1!
1%
b110000111 +

#3940000
0!
0%

#3945000
1!
1%
b110001000 +

#3950000
0!
0%

#3955000
1!
1%
b110001001 +

#3960000
0!
0%

#3965000
1!
1%
b110001010 +

#3970000
0!
0%

#3975000
1!
1%
b110001011 +

#3980000
0!
0%

#3985000
1!
1%
b110001100 +

#3990000
0!
0%

#3995000
1!
1%
b110001101 +

#4000000
0!
0%

#4005000
1!
1%
b110001110 +

#4010000
0!
0%

#4015000
1!
1%
b110001111 +

#4020000
0!
0%

#4025000
1!
1%
b110010000 +

#4030000
0!
0%

#4035000
1!
1%
b110010001 +

#4040000
0!
0%

#4045000
1!
1%
b110010010 +

#4050000
0!
0%

#4055000
1!
1%
b110010011 +

#4060000
0!
0%

#4065000
1!
1%
b110010100 +

#4070000
0!
0%

#4075000
1!
1%
b110010101 +

#4080000
0!
0%

#4085000
1!
1%
b110010110 +

#4090000
0!
0%

#4095000
1!
1%
b110010111 +

#4100000
0!
0%

#4105000
1!
1%
b110011000 +

#4110000
0!
0%

#4115000
1!
1%
b110011001 +

#4120000
0!
0%

#4125000
1!
1%
b110011010 +

#4130000
0!
0%

#4135000
1!
1%
b110011011 +

#4140000
0!
0%

#4145000
1!
1%
b110011100 +

#4150000
0!
0%

#4155000
1!
1%
b110011101 +

#4160000
0!
0%

#4165000
1!
1%
b110011110 +

#4170000
0!
0%

#4175000
1!
1%
b110011111 +

#4180000
0!
0%

#4185000
1!
1%
b110100000 +

#4190000
0!
0%

#4195000
1!
1%
b110100001 +

#4200000
0!
0%

#4205000
1!
1%
b110100010 +

#4210000
0!
0%

#4215000
1!
1%
b110100011 +

#4220000
0!
0%

#4225000
1!
1%
b110100100 +

#4230000
0!
0%

#4235000
1!
1%
b110100101 +

#4240000
0!
0%

#4245000
1!
1%
b110100110 +

#4250000
0!
0%

#4255000
1!
1%
b110100111 +

#4260000
0!
0%

#4265000
1!
1%
b110101000 +

#4270000
0!
0%

#4275000
1!
1%
b110101001 +

#4280000
0!
0%

#4285000
1!
1%
b110101010 +

#4290000
0!
0%

#4295000
1!
1%
b110101011 +

#4300000
0!
0%

#4305000
1!
1%
b110101100 +

#4310000
0!
0%

#4315000
1!
1%
b110101101 +

#4320000
0!
0%

#4325000
1!
1%
b110101110 +

#4330000
0!
0%

#4335000
1!
1%
b110101111 +

#4340000
0!
0%

#4345000
1!
1%
b110110000 +

#4350000
0!
0%

#4355000
1!
1%
b110110001 +

#4360000
0!
0%

#4365000
1!
1%
b110110010 +

#4370000
0!
0%

#4375000
1!
1%
b110110011 +

#4380000
0!
0%

#4385000
1!
1%
b110110100 +

#4390000
0!
0%

#4395000
1!
1%
b110110101 +

#4400000
0!
0%

#4405000
1!
1%
b110110110 +

#4410000
0!
0%

#4415000
1!
1%
b110110111 +

#4420000
0!
0%

#4425000
1!
1%
b110111000 +

#4430000
0!
0%

#4435000
1!
1%
b110111001 +

#4440000
0!
0%

#4445000
1!
1%
b110111010 +

#4450000
0!
0%

#4455000
1!
1%
b110111011 +

#4460000
0!
0%

#4465000
1!
1%
b110111100 +

#4470000
0!
0%

#4475000
1!
1%
b110111101 +

#4480000
0!
0%

#4485000
1!
1%
b110111110 +

#4490000
0!
0%

#4495000
1!
1%
b110111111 +

#4500000
0!
b11 #
0%
b11 '

#4505000
1!
1%
b10010110000000 )
b111000000 +
b1010001100 ,

#4510000
0!
0%

#4515000
1!
1%
b111000001 +

#4520000
0!
0%

#4525000
1!
1%
b111000010 +

#4530000
0!
0%

#4535000
1!
1%
b111000011 +

#4540000
0!
0%

#4545000
1!
1%
b111000100 +

#4550000
0!
0%

#4555000
1!
1%
b111000101 +

#4560000
0!
0%

#4565000
1!
1%
b111000110 +

#4570000
0!
0%

#4575000
1!
1%
b111000111 +

#4580000
0!
0%

#4585000
1!
1%
b111001000 +

#4590000
0!
0%

#4595000
1!
1%
b111001001 +

#4600000
0!
0%

#4605000
1!
1%
b111001010 +

#4610000
0!
0%

#4615000
1!
1%
b111001011 +

#4620000
0!
0%

#4625000
1!
1%
b111001100 +

#4630000
0!
0%

#4635000
1!
1%
b111001101 +

#4640000
0!
0%

#4645000
1!
1%
b111001110 +

#4650000
0!
0%

#4655000
1!
1%
b111001111 +

#4660000
0!
0%

#4665000
1!
1%
b111010000 +

#4670000
0!
0%

#4675000
1!
1%
b111010001 +

#4680000
0!
0%

#4685000
1!
1%
b111010010 +

#4690000
0!
0%

#4695000
1!
1%
b111010011 +

#4700000
0!
0%

#4705000
1!
1%
b111010100 +

#4710000
0!
0%

#4715000
1!
1%
b111010101 +

#4720000
0!
0%

#4725000
1!
1%
b111010110 +

#4730000
0!
0%

#4735000
1!
1%
b111010111 +

#4740000
0!
0%

#4745000
1!
1%
b111011000 +

#4750000
0!
0%

#4755000
1!
1%
b111011001 +

#4760000
0!
0%

#4765000
1!
1%
b111011010 +

#4770000
0!
0%

#4775000
1!
1%
b111011011 +

#4780000
0!
0%

#4785000
1!
1%
b111011100 +

#4790000
0!
0%

#4795000
1!
1%
b111011101 +

#4800000
0!
0%

#4805000
1!
1%
b111011110 +

#4810000
0!
0%

#4815000
1!
1%
b111011111 +

#4820000
0!
0%

#4825000
1!
1%
b111100000 +

#4830000
0!
0%

#4835000
1!
1%
b111100001 +

#4840000
0!
0%

#4845000
1!
1%
b111100010 +

#4850000
0!
0%

#4855000
1!
1%
b111100011 +

#4860000
0!
0%

#4865000
1!
1%
b111100100 +

#4870000
0!
0%

#4875000
1!
1%
b111100101 +

#4880000
0!
0%

#4885000
1!
1%
b111100110 +

#4890000
0!
0%

#4895000
1!
1%
b111100111 +

#4900000
0!
0%

#4905000
1!
1%
b111101000 +

#4910000
0!
0%

#4915000
1!
1%
b111101001 +

#4920000
0!
0%

#4925000
1!
1%
b111101010 +

#4930000
0!
0%

#4935000
1!
1%
b111101011 +

#4940000
0!
0%

#4945000
1!
1%
b111101100 +

#4950000
0!
0%

#4955000
1!
1%
b111101101 +

#4960000
0!
0%

#4965000
1!
1%
b111101110 +

#4970000
0!
0%

#4975000
1!
1%
b111101111 +

#4980000
0!
0%

#4985000
1!
1%
b111110000 +

#4990000
0!
0%

#4995000
1!
1%
b111110001 +

#5000000
0!
0%

#5005000
1!
1%
b111110010 +

#5010000
0!
0%

#5015000
1!
1%
b111110011 +

#5020000
0!
0%

#5025000
1!
1%
b111110100 +

#5030000
0!
0%

#5035000
1!
1%
b111110101 +

#5040000
0!
0%

#5045000
1!
1%
b111110110 +

#5050000
0!
0%

#5055000
1!
1%
b111110111 +

#5060000
0!
0%

#5065000
1!
1%
b111111000 +

#5070000
0!
0%

