project2/Working/PartB/lab_project_2_partA.sim/sim_1/behav/xsim/uart_transmitter_tb.vcd
$date
   Mon Nov 11 02:30:36 2024
$end

$version
  2024.1
  $dumpfile ("uart_transmitter_tb.vcd") 
$end

$timescale
  1ps
$end

$scope module uart_transmitter_tb $end
$var reg 1 ! clk $end
$var reg 1 " reset $end
$var reg 3 # baud_select [2:0] $end
$var reg 8 $ Tx_DATA [7:0] $end
$var reg 1 % Tx_EN $end
$var reg 1 & Tx_WR $end
$var wire 1 ' TxD $end
$var wire 1 ( Tx_BUSY $end
$scope module uart_transmitter_bench $end
$var wire 1 ) reset $end
$var wire 1 * clk $end
$var wire 8 + Tx_DATA [7:0] $end
$var wire 3 , baud_select [2:0] $end
$var wire 1 - Tx_EN $end
$var wire 1 . Tx_WR $end
$var reg 1 / TxD $end
$var reg 1 0 Tx_BUSY $end
$var reg 4 1 enableCounter [3:0] $end
$var reg 3 2 writeCounter [2:0] $end
$var reg 3 3 state [2:0] $end
$var reg 3 4 nextState [2:0] $end
$var reg 3 5 i [2:0] $end
$var reg 1 6 switchEnable $end
$var reg 1 7 parity $end
$var reg 1 8 idle_i $end
$var reg 1 9 data_i $end
$var wire 1 : Tx_sample_ENABLE $end
$scope module baud_controller_tx_inst $end
$var wire 1 * clk $end
$var wire 1 ) reset $end
$var wire 3 , baud_select [2:0] $end
$var wire 1 - Tx_EN $end
$var reg 1 ; sample_ENABLE $end
$var reg 15 < counter [14:0] $end
$var reg 15 = countMax [14:0] $end
$upscope $end
$upscope $end
$upscope $end
$enddefinitions $end

#0
$dumpvars
0!
1"
b111 #
bx $
0%
0&
1'
0(
1)
0*
bx +
b111 ,
0-
0.
1/
00
b0 1
b0 2
b0 3
b0 4
bx 5
06
07
18
09
0:
0;
b0 <
b110110 =
$end

#5000
1!
1*

#10000
0!
0*

#15000
1!
1*

#20000
0!
0*

#25000
1!
0"
0)
1*

#30000
0!
1%
0*
1-

#35000
1!
1*
b1 <

#40000
0!
0*

#45000
1!
1*
b10 <

#50000
0!
b10101010 $
0*
b10101010 +

#55000
1!
1*
b11 <

#60000
0!
1&
0*
1.
b1 4

#65000
1!
0'
1(
1*
0/
10
b1 3
08
b100 <

#70000
0!
0&
0*
0.

#75000
1!
1*
b101 <

#80000
0!
0*

#85000
1!
1*
b110 <

#90000
0!
0*

#95000
1!
1*
b111 <

#100000
0!
0*

#105000
1!
1*
b1000 <

#110000
0!
0*

#115000
1!
1*
b1001 <

#120000
0!
0*

#125000
1!
1*
b1010 <

#130000
0!
0*

#135000
1!
1*
b1011 <

#140000
0!
0*

#145000
1!
1*
b1100 <

#150000
0!
0*

#155000
1!
1*
b1101 <

#160000
0!
0*

#165000
1!
1*
b1110 <

#170000
0!
0*

#175000
1!
1*
b1111 <

#180000
0!
0*

#185000
1!
1*
b10000 <

#190000
0!
0*

#195000
1!
1*
b10001 <

#200000
0!
0*

#205000
1!
1*
b10010 <

#210000
0!
0*

#215000
1!
1*
b10011 <

#220000
0!
0*

#225000
1!
1*
b10100 <

#230000
0!
0*

#235000
1!
1*
b10101 <

#240000
0!
0*

#245000
1!
1*
b10110 <

#250000
0!
0*

#255000
1!
1*
b10111 <

#260000
0!
0*

#265000
1!
1*
b11000 <

#270000
0!
0*

#275000
1!
1*
b11001 <

#280000
0!
0*

#285000
1!
1*
b11010 <

#290000
0!
0*

#295000
1!
1*
b11011 <

#300000
0!
0*

#305000
1!
1*
b11100 <

#310000
0!
0*

#315000
1!
1*
b11101 <

#320000
0!
0*

#325000
1!
1*
b11110 <

#330000
0!
0*

#335000
1!
1*
b11111 <

#340000
0!
0*

#345000
1!
1*
b100000 <

#350000
0!
0*

#355000
1!
1*
b100001 <

#360000
0!
0*

#365000
1!
1*
b100010 <

#370000
0!
0*

#375000
1!
1*
b100011 <

#380000
0!
0*

#385000
1!
1*
b100100 <

#390000
0!
0*

#395000
1!
1*
b100101 <

#400000
0!
0*

#405000
1!
1*
b100110 <

#410000
0!
0*

#415000
1!
1*
b100111 <

#420000
0!
0*

#425000
1!
1*
b101000 <

#430000
0!
0*

#435000
1!
1*
b101001 <

#440000
0!
0*

#445000
1!
1*
b101010 <

#450000
0!
0*

#455000
1!
1*
b101011 <

#460000
0!
0*

#465000
1!
1*
b101100 <

#470000
0!
0*

#475000
1!
1*
b101101 <

#480000
0!
0*

#485000
1!
1*
b101110 <

#490000
0!
0*

#495000
1!
1*
b101111 <

#500000
0!
0*

#505000
1!
1*
b110000 <

#510000
0!
0*

#515000
1!
1*
b110001 <

#520000
0!
0*

#525000
1!
1*
b110010 <

#530000
0!
0*

#535000
1!
1*
b110011 <

#540000
0!
0*

#545000
1!
1*
b110100 <

#550000
0!
0*

#555000
1!
1*
b110101 <

#560000
0!
0*

#565000
1!
1*
b110110 <

#570000
0!
0*

#575000
1!
1*
1:
1;
b0 <

#580000
0!
0*

#585000
1!
1*
b1 1
0:
0;
b1 <

#590000
0!
0*

#595000
1!
1*
b10 <

#600000
0!
0*

#605000
1!
1*
b11 <

#610000
0!
0*

#615000
1!
1*
b100 <

#620000
0!
0*

#625000
1!
1*
b101 <

#630000
0!
0*

#635000
1!
1*
b110 <

#640000
0!
0*

#645000
1!
1*
b111 <

#650000
0!
0*

#655000
1!
1*
b1000 <

#660000
0!
0*

#665000
1!
1*
b1001 <

#670000
0!
0*

#675000
1!
1*
b1010 <

#680000
0!
0*

#685000
1!
1*
b1011 <

#690000
0!
0*

#695000
1!
1*
b1100 <

#700000
0!
0*

#705000
1!
1*
b1101 <

#710000
0!
0*

#715000
1!
1*
b1110 <

#720000
0!
0*

#725000
1!
1*
b1111 <

#730000
0!
0*

#735000
1!
1*
b10000 <

#740000
0!
0*

#745000
1!
1*
b10001 <

#750000
0!
0*

#755000
1!
1*
b10010 <

#760000
0!
0*

#765000
1!
1*
b10011 <

#770000
0!
0*

#775000
1!
1*
b10100 <

#780000
0!
0*

#785000
1!
1*
b10101 <

#790000
0!
0*

#795000
1!
1*
b10110 <

#800000
0!
0*

#805000
1!
1*
b10111 <

#810000
0!
0*

#815000
1!
1*
b11000 <

#820000
0!
0*

#825000
1!
1*
b11001 <

#830000
0!
0*

#835000
1!
1*
b11010 <

#840000
0!
0*

#845000
1!
1*
b11011 <

#850000
0!
0*

#855000
1!
1*
b11100 <

#860000
0!
0*

#865000
1!
1*
b11101 <

#870000
0!
0*

#875000
1!
1*
b11110 <

#880000
0!
0*

#885000
1!
1*
b11111 <

#890000
0!
0*

#895000
1!
1*
b100000 <

#900000
0!
0*

#905000
1!
1*
b100001 <

#910000
0!
0*

#915000
1!
1*
b100010 <

#920000
0!
0*

#925000
1!
1*
b100011 <

#930000
0!
0*

#935000
1!
1*
b100100 <

#940000
0!
0*

#945000
1!
1*
b100101 <

#950000
0!
0*

#955000
1!
1*
b100110 <

#960000
0!
0*

#965000
1!
1*
b100111 <

#970000
0!
0*

#975000
1!
1*
b101000 <

#980000
0!
0*

#985000
1!
1*
b101001 <

#990000
0!
0*

#995000
1!
1*
b101010 <

#1000000
0!
0*

#1005000
1!
1*
b101011 <

#1010000
0!
0*

#1015000
1!
1*
b101100 <

#1020000
0!
0*

#1025000
1!
1*
b101101 <

#1030000
0!
0*

#1035000
1!
1*
b101110 <

#1040000
0!
0*

#1045000
1!
1*
b101111 <

#1050000
0!
0*

#1055000
1!
1*
b110000 <

#1060000
0!
0*

#1065000
1!
1*
b110001 <

#1070000
0!
0*

#1075000
1!
1*
b110010 <

#1080000
0!
0*

#1085000
1!
1*
b110011 <

#1090000
0!
0*

#1095000
1!
1*
b110100 <

#1100000
0!
0*

#1105000
1!
1*
b110101 <

#1110000
0!
0*

#1115000
1!
1*
b110110 <

#1120000
0!
0*

#1125000
1!
1*
1:
1;
b0 <

#1130000
0!
0*

#1135000
1!
1*
b10 1
0:
0;
b1 <

#1140000
0!
0*

#1145000
1!
1*
b10 <

#1150000
0!
0*

#1155000
1!
1*
b11 <

#1160000
0!
0*

#1165000
1!
1*
b100 <

#1170000
0!
0*

#1175000
1!
1*
b101 <

#1180000
0!
0*

#1185000
1!
1*
b110 <

#1190000
0!
0*

#1195000
1!
1*
b111 <

#1200000
0!
0*

#1205000
1!
1*
b1000 <

#1210000
0!
0*

#1215000
1!
1*
b1001 <

#1220000
0!
0*

#1225000
1!
1*
b1010 <

#1230000
0!
0*

#1235000
1!
1*
b1011 <

#1240000
0!
0*

#1245000
1!
1*
b1100 <

#1250000
0!
0*

#1255000
1!
1*
b1101 <

#1260000
0!
0*

#1265000
1!
1*
b1110 <

#1270000
0!
0*

#1275000
1!
1*
b1111 <

#1280000
0!
0*

#1285000
1!
1*
b10000 <

#1290000
0!
0*

#1295000
1!
1*
b10001 <

#1300000
0!
0*

#1305000
1!
1*
b10010 <

#1310000
0!
0*

#1315000
1!
1*
b10011 <

#1320000
0!
0*

#1325000
1!
1*
b10100 <

#1330000
0!
0*

#1335000
1!
1*
b10101 <

#1340000
0!
0*

#1345000
1!
1*
b10110 <

#1350000
0!
0*

#1355000
1!
1*
b10111 <

#1360000
0!
0*

#1365000
1!
1*
b11000 <

#1370000
0!
0*

#1375000
1!
1*
b11001 <

#1380000
0!
0*

#1385000
1!
1*
b11010 <

#1390000
0!
0*

#1395000
1!
1*
b11011 <

#1400000
0!
0*

#1405000
1!
1*
b11100 <

#1410000
0!
0*

#1415000
1!
1*
b11101 <

#1420000
0!
0*

#1425000
1!
1*
b11110 <

#1430000
0!
0*

#1435000
1!
1*
b11111 <

#1440000
0!
0*

#1445000
1!
1*
b100000 <

#1450000
0!
0*

#1455000
1!
1*
b100001 <

#1460000
0!
0*

#1465000
1!
1*
b100010 <

#1470000
0!
0*

#1475000
1!
1*
b100011 <

#1480000
0!
0*

#1485000
1!
1*
b100100 <

#1490000
0!
0*

#1495000
1!
1*
b100101 <

#1500000
0!
0*

#1505000
1!
1*
b100110 <

#1510000
0!
0*

#1515000
1!
1*
b100111 <

#1520000
0!
0*

#1525000
1!
1*
b101000 <

#1530000
0!
0*

#1535000
1!
1*
b101001 <

#1540000
0!
0*

#1545000
1!
1*
b101010 <

#1550000
0!
0*

#1555000
1!
1*
b101011 <

#1560000
0!
0*

#1565000
1!
1*
b101100 <

#1570000
0!
0*

#1575000
1!
1*
b101101 <

#1580000
0!
0*

#1585000
1!
1*
b101110 <

#1590000
0!
0*

#1595000
1!
1*
b101111 <

#1600000
0!
0*

#1605000
1!
1*
b110000 <

#1610000
0!
0*

#1615000
1!
1*
b110001 <

#1620000
0!
0*

#1625000
1!
1*
b110010 <

#1630000
0!
0*

#1635000
1!
1*
b110011 <

#1640000
0!
0*

#1645000
1!
1*
b110100 <

#1650000
0!
0*

#1655000
1!
1*
b110101 <

#1660000
0!
0*

#1665000
1!
1*
b110110 <

#1670000
0!
0*

#1675000
1!
1*
1:
1;
b0 <

#1680000
0!
0*

#1685000
1!
1*
b11 1
0:
0;
b1 <

#1690000
0!
0*

#1695000
1!
1*
b10 <

#1700000
0!
0*

#1705000
1!
1*
b11 <

#1710000
0!
0*

#1715000
1!
1*
b100 <

#1720000
0!
0*

#1725000
1!
1*
b101 <

#1730000
0!
0*

#1735000
1!
1*
b110 <

#1740000
0!
0*

#1745000
1!
1*
b111 <

#1750000
0!
0*

#1755000
1!
1*
b1000 <

#1760000
0!
0*

#1765000
1!
1*
b1001 <

#1770000
0!
0*

#1775000
1!
1*
b1010 <

#1780000
0!
0*

#1785000
1!
1*
b1011 <

#1790000
0!
0*

#1795000
1!
1*
b1100 <

#1800000
0!
0*

#1805000
1!
1*
b1101 <

#1810000
0!
0*

#1815000
1!
1*
b1110 <

#1820000
0!
0*

#1825000
1!
1*
b1111 <

#1830000
0!
0*

#1835000
1!
1*
b10000 <

#1840000
0!
0*

#1845000
1!
1*
b10001 <

#1850000
0!
0*

#1855000
1!
1*
b10010 <

#1860000
0!
0*

#1865000
1!
1*
b10011 <

#1870000
0!
0*

#1875000
1!
1*
b10100 <

#1880000
0!
0*

#1885000
1!
1*
b10101 <

#1890000
0!
0*

#1895000
1!
1*
b10110 <

#1900000
0!
0*

#1905000
1!
1*
b10111 <

#1910000
0!
0*

#1915000
1!
1*
b11000 <

#1920000
0!
0*

#1925000
1!
1*
b11001 <

#1930000
0!
0*

#1935000
1!
1*
b11010 <

#1940000
0!
0*

#1945000
1!
1*
b11011 <

#1950000
0!
0*

#1955000
1!
1*
b11100 <

#1960000
0!
0*

#1965000
1!
1*
b11101 <

#1970000
0!
0*

#1975000
1!
1*
b11110 <

#1980000
0!
0*

#1985000
1!
1*
b11111 <

#1990000
0!
0*

#1995000
1!
1*
b100000 <

#2000000
0!
0*

#2005000
1!
1*
b100001 <

#2010000
0!
0*

#2015000
1!
1*
b100010 <

#2020000
0!
0*

#2025000
1!
1*
b100011 <

#2030000
0!
0*

#2035000
1!
1*
b100100 <

#2040000
0!
0*

#2045000
1!
1*
b100101 <

#2050000
0!
0*

#2055000
1!
1*
b100110 <

#2060000
0!
0*

#2065000
1!
1*
b100111 <

#2070000
0!
0*

#2075000
1!
1*
b101000 <

#2080000
0!
0*

#2085000
1!
1*
b101001 <

#2090000
0!
0*

#2095000
1!
1*
b101010 <

#2100000
0!
0*

#2105000
1!
1*
b101011 <

#2110000
0!
0*

#2115000
1!
1*
b101100 <

#2120000
0!
0*

#2125000
1!
1*
b101101 <

#2130000
0!
0*

#2135000
1!
1*
b101110 <

#2140000
0!
0*

#2145000
1!
1*
b101111 <

#2150000
0!
0*

#2155000
1!
1*
b110000 <

#2160000
0!
0*

#2165000
1!
1*
b110001 <

#2170000
0!
0*

#2175000
1!
1*
b110010 <

#2180000
0!
0*

#2185000
1!
1*
b110011 <

#2190000
0!
0*

#2195000
1!
1*
b110100 <

#2200000
0!
0*

#2205000
1!
1*
b110101 <

#2210000
0!
0*

#2215000
1!
1*
b110110 <

#2220000
0!
0*

#2225000
1!
1*
1:
1;
b0 <

#2230000
0!
0*

#2235000
1!
1*
b100 1
0:
0;
b1 <

#2240000
0!
0*

#2245000
1!
1*
b10 <

#2250000
0!
0*

#2255000
1!
1*
b11 <

#2260000
0!
0*

#2265000
1!
1*
b100 <

#2270000
0!
0*

#2275000
1!
1*
b101 <

#2280000
0!
0*

#2285000
1!
1*
b110 <

#2290000
0!
0*

#2295000
1!
1*
b111 <

#2300000
0!
0*

#2305000
1!
1*
b1000 <

#2310000
0!
0*

#2315000
1!
1*
b1001 <

#2320000
0!
0*

#2325000
1!
1*
b1010 <

#2330000
0!
0*

#2335000
1!
1*
b1011 <

#2340000
0!
0*

#2345000
1!
1*
b1100 <

#2350000
0!
0*

#2355000
1!
1*
b1101 <

#2360000
0!
0*

#2365000
1!
1*
b1110 <

#2370000
0!
0*

#2375000
1!
1*
b1111 <

#2380000
0!
0*

#2385000
1!
1*
b10000 <

#2390000
0!
0*

#2395000
1!
1*
b10001 <

#2400000
0!
0*

#2405000
1!
1*
b10010 <

#2410000
0!
0*

#2415000
1!
1*
b10011 <

#2420000
0!
0*

#2425000
1!
1*
b10100 <

#2430000
0!
0*

#2435000
1!
1*
b10101 <

#2440000
0!
0*

#2445000
1!
1*
b10110 <

#2450000
0!
0*

#2455000
1!
1*
b10111 <

#2460000
0!
0*

#2465000
1!
1*
b11000 <

#2470000
0!
0*

#2475000
1!
1*
b11001 <

#2480000
0!
0*

#2485000
1!
1*
b11010 <

#2490000
0!
0*

#2495000
1!
1*
b11011 <

#2500000
0!
0*

#2505000
1!
1*
b11100 <

#2510000
0!
0*

#2515000
1!
1*
b11101 <

#2520000
0!
0*

#2525000
1!
1*
b11110 <

#2530000
0!
0*

#2535000
1!
1*
b11111 <

#2540000
0!
0*

#2545000
1!
1*
b100000 <

#2550000
0!
0*

#2555000
1!
1*
b100001 <

#2560000
0!
0*

#2565000
1!
1*
b100010 <

#2570000
0!
0*

#2575000
1!
1*
b100011 <

#2580000
0!
0*

#2585000
1!
1*
b100100 <

#2590000
0!
0*

#2595000
1!
1*
b100101 <

#2600000
0!
0*

#2605000
1!
1*
b100110 <

#2610000
0!
0*

#2615000
1!
1*
b100111 <

#2620000
0!
0*

#2625000
1!
1*
b101000 <

#2630000
0!
0*

#2635000
1!
1*
b101001 <

#2640000
0!
0*

#2645000
1!
1*
b101010 <

#2650000
0!
0*

#2655000
1!
1*
b101011 <

#2660000
0!
0*

#2665000
1!
1*
b101100 <

#2670000
0!
0*

#2675000
1!
1*
b101101 <

#2680000
0!
0*

#2685000
1!
1*
b101110 <

#2690000
0!
0*

#2695000
1!
1*
b101111 <

#2700000
0!
0*

#2705000
1!
1*
b110000 <

#2710000
0!
0*

#2715000
1!
1*
b110001 <

#2720000
0!
0*

#2725000
1!
1*
b110010 <

#2730000
0!
0*

#2735000
1!
1*
b110011 <

#2740000
0!
0*

#2745000
1!
1*
b110100 <

#2750000
0!
0*

#2755000
1!
1*
b110101 <

#2760000
0!
0*

#2765000
1!
1*
b110110 <

#2770000
0!
0*

#2775000
1!
1*
1:
1;
b0 <

#2780000
0!
0*

#2785000
1!
1*
b101 1
0:
0;
b1 <

#2790000
0!
0*

#2795000
1!
1*
b10 <

#2800000
0!
0*

#2805000
1!
1*
b11 <

#2810000
0!
0*

#2815000
1!
1*
b100 <

#2820000
0!
0*

#2825000
1!
1*
b101 <

#2830000
0!
0*

#2835000
1!
1*
b110 <

#2840000
0!
0*

#2845000
1!
1*
b111 <

#2850000
0!
0*

#2855000
1!
1*
b1000 <

#2860000
0!
0*

#2865000
1!
1*
b1001 <

#2870000
0!
0*

#2875000
1!
1*
b1010 <

#2880000
0!
0*

#2885000
1!
1*
b1011 <

#2890000
0!
0*

#2895000
1!
1*
b1100 <

#2900000
0!
0*

#2905000
1!
1*
b1101 <

#2910000
0!
0*

#2915000
1!
1*
b1110 <

#2920000
0!
0*

#2925000
1!
1*
b1111 <

#2930000
0!
0*

#2935000
1!
1*
b10000 <

#2940000
0!
0*

#2945000
1!
1*
b10001 <

#2950000
0!
0*

#2955000
1!
1*
b10010 <

#2960000
0!
0*

#2965000
1!
1*
b10011 <

#2970000
0!
0*

#2975000
1!
1*
b10100 <

#2980000
0!
0*

#2985000
1!
1*
b10101 <

#2990000
0!
0*

#2995000
1!
1*
b10110 <

#3000000
0!
0*

#3005000
1!
1*
b10111 <

#3010000
0!
0*

#3015000
1!
1*
b11000 <

#3020000
0!
0*

#3025000
1!
1*
b11001 <

#3030000
0!
0*

#3035000
1!
1*
b11010 <

#3040000
0!
0*

#3045000
1!
1*
b11011 <

#3050000
0!
0*

#3055000
1!
1*
b11100 <

#3060000
0!
0*

#3065000
1!
1*
b11101 <

#3070000
0!
0*

#3075000
1!
1*
b11110 <

#3080000
0!
0*

#3085000
1!
1*
b11111 <

#3090000
0!
0*

#3095000
1!
1*
b100000 <

#3100000
0!
0*

#3105000
1!
1*
b100001 <

#3110000
0!
0*

#3115000
1!
1*
b100010 <

#3120000
0!
0*

#3125000
1!
1*
b100011 <

#3130000
0!
0*

#3135000
1!
1*
b100100 <

#3140000
0!
0*

#3145000
1!
1*
b100101 <

#3150000
0!
0*

#3155000
1!
1*
b100110 <

#3160000
0!
0*

#3165000
1!
1*
b100111 <

#3170000
0!
0*

#3175000
1!
1*
b101000 <

#3180000
0!
0*

#3185000
1!
1*
b101001 <

#3190000
0!
0*

#3195000
1!
1*
b101010 <

#3200000
0!
0*

#3205000
1!
1*
b101011 <

#3210000
0!
0*

#3215000
1!
1*
b101100 <

#3220000
0!
0*

#3225000
1!
1*
b101101 <

#3230000
0!
0*

#3235000
1!
1*
b101110 <

#3240000
0!
0*

#3245000
1!
1*
b101111 <

#3250000
0!
0*

#3255000
1!
1*
b110000 <

#3260000
0!
0*

#3265000
1!
1*
b110001 <

#3270000
0!
0*

#3275000
1!
1*
b110010 <

#3280000
0!
0*

#3285000
1!
1*
b110011 <

#3290000
0!
0*

#3295000
1!
1*
b110100 <

#3300000
0!
0*

#3305000
1!
1*
b110101 <

#3310000
0!
0*

#3315000
1!
1*
b110110 <

#3320000
0!
0*

#3325000
1!
1*
1:
1;
b0 <

#3330000
0!
0*

#3335000
1!
1*
b110 1
0:
0;
b1 <

#3340000
0!
0*

#3345000
1!
1*
b10 <

#3350000
0!
0*

#3355000
1!
1*
b11 <

#3360000
0!
0*

#3365000
1!
1*
b100 <

#3370000
0!
0*

#3375000
1!
1*
b101 <

#3380000
0!
0*

#3385000
1!
1*
b110 <

#3390000
0!
0*

#3395000
1!
1*
b111 <

#3400000
0!
0*

#3405000
1!
1*
b1000 <

#3410000
0!
0*

#3415000
1!
1*
b1001 <

#3420000
0!
0*

#3425000
1!
1*
b1010 <

#3430000
0!
0*

#3435000
1!
1*
b1011 <

#3440000
0!
0*

#3445000
1!
1*
b1100 <

#3450000
0!
0*

#3455000
1!
1*
b1101 <

#3460000
0!
0*

#3465000
1!
1*
b1110 <

#3470000
0!
0*

#3475000
1!
1*
b1111 <

#3480000
0!
0*

#3485000
1!
1*
b10000 <

#3490000
0!
0*

#3495000
1!
1*
b10001 <

#3500000
0!
0*

#3505000
1!
1*
b10010 <

#3510000
0!
0*

#3515000
1!
1*
b10011 <

#3520000
0!
0*

#3525000
1!
1*
b10100 <

#3530000
0!
0*

#3535000
1!
1*
b10101 <

#3540000
0!
0*

#3545000
1!
1*
b10110 <

#3550000
0!
0*

#3555000
1!
1*
b10111 <

#3560000
0!
0*

#3565000
1!
1*
b11000 <

#3570000
0!
0*

#3575000
1!
1*
b11001 <

#3580000
0!
0*

#3585000
1!
1*
b11010 <

#3590000
0!
0*

#3595000
1!
1*
b11011 <

#3600000
0!
0*

#3605000
1!
1*
b11100 <

#3610000
0!
0*

#3615000
1!
1*
b11101 <

#3620000
0!
0*

#3625000
1!
1*
b11110 <

#3630000
0!
0*

#3635000
1!
1*
b11111 <

#3640000
0!
0*

#3645000
1!
1*
b100000 <

#3650000
0!
0*

#3655000
1!
1*
b100001 <

#3660000
0!
0*

#3665000
1!
1*
b100010 <

#3670000
0!
0*

#3675000
1!
1*
b100011 <

#3680000
0!
0*

#3685000
1!
1*
b100100 <

#3690000
0!
0*

#3695000
1!
1*
b100101 <

#3700000
0!
0*

#3705000
1!
1*
b100110 <

#3710000
0!
0*

#3715000
1!
1*
b100111 <

#3720000
0!
0*

#3725000
1!
1*
b101000 <

#3730000
0!
0*

#3735000
1!
1*
b101001 <

#3740000
0!
0*

#3745000
1!
1*
b101010 <

#3750000
0!
0*

#3755000
1!
1*
b101011 <

#3760000
0!
0*

#3765000
1!
1*
b101100 <

#3770000
0!
0*

#3775000
1!
1*
b101101 <

#3780000
0!
0*

#3785000
1!
1*
b101110 <

#3790000
0!
0*

#3795000
1!
1*
b101111 <

#3800000
0!
0*

#3805000
1!
1*
b110000 <

#3810000
0!
0*

#3815000
1!
1*
b110001 <

#3820000
0!
0*

#3825000
1!
1*
b110010 <

#3830000
0!
0*

#3835000
1!
1*
b110011 <

#3840000
0!
0*

#3845000
1!
1*
b110100 <

#3850000
0!
0*

#3855000
1!
1*
b110101 <

#3860000
0!
0*

#3865000
1!
1*
b110110 <

#3870000
0!
0*

#3875000
1!
1*
1:
1;
b0 <

#3880000
0!
0*

#3885000
1!
1*
b111 1
0:
0;
b1 <

#3890000
0!
0*

#3895000
1!
1*
b10 <

#3900000
0!
0*

#3905000
1!
1*
b11 <

#3910000
0!
0*

#3915000
1!
1*
b100 <

#3920000
0!
0*

#3925000
1!
1*
b101 <

#3930000
0!
0*

#3935000
1!
1*
b110 <

#3940000
0!
0*

#3945000
1!
1*
b111 <

#3950000
0!
0*

#3955000
1!
1*
b1000 <

#3960000
0!
0*

#3965000
1!
1*
b1001 <

#3970000
0!
0*

#3975000
1!
1*
b1010 <

#3980000
0!
0*

#3985000
1!
1*
b1011 <

#3990000
0!
0*

#3995000
1!
1*
b1100 <

#4000000
0!
0*

#4005000
1!
1*
b1101 <

#4010000
0!
0*

#4015000
1!
1*
b1110 <

#4020000
0!
0*

#4025000
1!
1*
b1111 <

#4030000
0!
0*

#4035000
1!
1*
b10000 <

#4040000
0!
0*

#4045000
1!
1*
b10001 <

#4050000
0!
0*

#4055000
1!
1*
b10010 <

#4060000
0!
0*

#4065000
1!
1*
b10011 <

#4070000
0!
0*

#4075000
1!
1*
b10100 <

#4080000
0!
0*

#4085000
1!
1*
b10101 <

#4090000
0!
0*

#4095000
1!
1*
b10110 <

#4100000
0!
0*

#4105000
1!
1*
b10111 <

#4110000
0!
0*

#4115000
1!
1*
b11000 <

#4120000
0!
0*

#4125000
1!
1*
b11001 <

#4130000
0!
0*

#4135000
1!
1*
b11010 <

#4140000
0!
0*

#4145000
1!
1*
b11011 <

#4150000
0!
0*

#4155000
1!
1*
b11100 <

#4160000
0!
0*

#4165000
1!
1*
b11101 <

#4170000
0!
0*

#4175000
1!
1*
b11110 <

#4180000
0!
0*

#4185000
1!
1*
b11111 <

#4190000
0!
0*

#4195000
1!
1*
b100000 <

#4200000
0!
0*

#4205000
1!
1*
b100001 <

#4210000
0!
0*

#4215000
1!
1*
b100010 <

#4220000
0!
0*

#4225000
1!
1*
b100011 <

#4230000
0!
0*

#4235000
1!
1*
b100100 <

#4240000
0!
0*

#4245000
1!
1*
b100101 <

#4250000
0!
0*

#4255000
1!
1*
b100110 <

#4260000
0!
0*

#4265000
1!
1*
b100111 <

#4270000
0!
0*

#4275000
1!
1*
b101000 <

#4280000
0!
0*

#4285000
1!
1*
b101001 <

#4290000
0!
0*

#4295000
1!
1*
b101010 <

#4300000
0!
0*

#4305000
1!
1*
b101011 <

#4310000
0!
0*

#4315000
1!
1*
b101100 <

#4320000
0!
0*

#4325000
1!
1*
b101101 <

#4330000
0!
0*

#4335000
1!
1*
b101110 <

#4340000
0!
0*

#4345000
1!
1*
b101111 <

#4350000
0!
0*

#4355000
1!
1*
b110000 <

#4360000
0!
0*

#4365000
1!
1*
b110001 <

#4370000
0!
0*

#4375000
1!
1*
b110010 <

#4380000
0!
0*

#4385000
1!
1*
b110011 <

#4390000
0!
0*

#4395000
1!
1*
b110100 <

#4400000
0!
0*

#4405000
1!
1*
b110101 <

#4410000
0!
0*

#4415000
1!
1*
b110110 <

#4420000
0!
0*

#4425000
1!
1*
1:
1;
b0 <

#4430000
0!
0*

#4435000
1!
1*
b1000 1
0:
0;
b1 <

#4440000
0!
0*

#4445000
1!
1*
b10 <

#4450000
0!
0*

#4455000
1!
1*
b11 <

#4460000
0!
0*

#4465000
1!
1*
b100 <

#4470000
0!
0*

#4475000
1!
1*
b101 <

#4480000
0!
0*

#4485000
1!
1*
b110 <

#4490000
0!
0*

#4495000
1!
1*
b111 <

#4500000
0!
0*

#4505000
1!
1*
b1000 <

#4510000
0!
0*

#4515000
1!
1*
b1001 <

#4520000
0!
0*

#4525000
1!
1*
b1010 <

#4530000
0!
0*

#4535000
1!
1*
b1011 <

#4540000
0!
0*

#4545000
1!
1*
b1100 <

#4550000
0!
0*

#4555000
1!
1*
b1101 <

#4560000
0!
0*

#4565000
1!
1*
b1110 <

#4570000
0!
0*

#4575000
1!
1*
b1111 <

#4580000
0!
0*

#4585000
1!
1*
b10000 <

#4590000
0!
0*

#4595000
1!
1*
b10001 <

#4600000
0!
0*

#4605000
1!
1*
b10010 <

#4610000
0!
0*

#4615000
1!
1*
b10011 <

#4620000
0!
0*

#4625000
1!
1*
b10100 <

#4630000
0!
0*

#4635000
1!
1*
b10101 <

#4640000
0!
0*

#4645000
1!
1*
b10110 <

#4650000
0!
0*

#4655000
1!
1*
b10111 <

#4660000
0!
0*

#4665000
1!
1*
b11000 <

#4670000
0!
0*

#4675000
1!
1*
b11001 <

#4680000
0!
0*

#4685000
1!
1*
b11010 <

#4690000
0!
0*

#4695000
1!
1*
b11011 <

#4700000
0!
0*

#4705000
1!
1*
b11100 <

#4710000
0!
0*

#4715000
1!
1*
b11101 <

#4720000
0!
0*

#4725000
1!
1*
b11110 <

#4730000
0!
0*

#4735000
1!
1*
b11111 <

#4740000
0!
0*

#4745000
1!
1*
b100000 <

#4750000
0!
0*

#4755000
1!
1*
b100001 <

#4760000
0!
0*

#4765000
1!
1*
b100010 <

#4770000
0!
0*

#4775000
1!
1*
b100011 <

#4780000
0!
0*

#4785000
1!
1*
b100100 <

#4790000
0!
0*

#4795000
1!
1*
b100101 <

#4800000
0!
0*

#4805000
1!
1*
b100110 <

#4810000
0!
0*

#4815000
1!
1*
b100111 <

#4820000
0!
0*

#4825000
1!
1*
b101000 <

#4830000
0!
0*

#4835000
1!
1*
b101001 <

#4840000
0!
0*

#4845000
1!
1*
b101010 <

#4850000
0!
0*

#4855000
1!
1*
b101011 <

#4860000
0!
0*

#4865000
1!
1*
b101100 <

#4870000
0!
0*

#4875000
1!
1*
b101101 <

#4880000
0!
0*

#4885000
1!
1*
b101110 <

#4890000
0!
0*

#4895000
1!
1*
b101111 <

#4900000
0!
0*

#4905000
1!
1*
b110000 <

#4910000
0!
0*

#4915000
1!
1*
b110001 <

#4920000
0!
0*

#4925000
1!
1*
b110010 <

#4930000
0!
0*

#4935000
1!
1*
b110011 <

#4940000
0!
0*

#4945000
1!
1*
b110100 <

#4950000
0!
0*

#4955000
1!
1*
b110101 <

#4960000
0!
0*

#4965000
1!
1*
b110110 <

#4970000
0!
0*

#4975000
1!
1*
1:
1;
b0 <

#4980000
0!
0*

#4985000
1!
1*
b1001 1
0:
0;
b1 <

#4990000
0!
0*

#4995000
1!
1*
b10 <

#5000000
0!
0*

#5005000
1!
1*
b11 <

#5010000
0!
0*

#5015000
1!
1*
b100 <

#5020000
0!
0*

#5025000
1!
1*
b101 <

#5030000
0!
0*

#5035000
1!
1*
b110 <

#5040000
0!
0*

#5045000
1!
1*
b111 <

#5050000
0!
0*

#5055000
1!
1*
b1000 <

#5060000
0!
0*

