project2/Working/PartA/lab_project_2_partA.sim/sim_1/synth/func/xsim/baud_controller_tb.vcd
$date
   Wed Oct 30 00:09:31 2024
$end

$version
  2024.1
  $dumpfile ("baud_controller_tb.vcd") 
$end

$timescale
  1ps
$end

$scope module baud_controller_tb $end
$var reg 1 ! clk $end
$var reg 1 " reset $end
$var reg 3 # baud_select [2:0] $end
$var wire 1 $ sample_ENABLE $end
$scope module baud_controller_bench $end
$var wire 3 % baud_select [2:0] $end
$var wire 3 & baud_select_IBUF [2:0] $end
$var wire 1 ' clk $end
$var wire 1 ( clk_IBUF $end
$var wire 1 ) clk_IBUF_BUFG $end
$var wire 1 * \counter[0]_i_2_n_0  $end
$var wire 1 + \counter[0]_i_3_n_0  $end
$var wire 1 , \counter[0]_i_4_n_0  $end
$var wire 1 - \counter[0]_i_5_n_0  $end
$var wire 1 . \counter[0]_i_6_n_0  $end
$var wire 1 / \counter[12]_i_2_n_0  $end
$var wire 1 0 \counter[12]_i_3_n_0  $end
$var wire 1 1 \counter[12]_i_4_n_0  $end
$var wire 1 2 \counter[4]_i_2_n_0  $end
$var wire 1 3 \counter[4]_i_3_n_0  $end
$var wire 1 4 \counter[4]_i_4_n_0  $end
$var wire 1 5 \counter[4]_i_5_n_0  $end
$var wire 1 6 \counter[8]_i_2_n_0  $end
$var wire 1 7 \counter[8]_i_3_n_0  $end
$var wire 1 8 \counter[8]_i_4_n_0  $end
$var wire 1 9 \counter[8]_i_5_n_0  $end
$var wire 15 : counter_reg [14:0] $end
$var wire 1 ; \counter_reg[0]_i_1_n_0  $end
$var wire 1 < \counter_reg[0]_i_1_n_1  $end
$var wire 1 = \counter_reg[0]_i_1_n_2  $end
$var wire 1 > \counter_reg[0]_i_1_n_3  $end
$var wire 1 ? \counter_reg[0]_i_1_n_4  $end
$var wire 1 @ \counter_reg[0]_i_1_n_5  $end
$var wire 1 A \counter_reg[0]_i_1_n_6  $end
$var wire 1 B \counter_reg[0]_i_1_n_7  $end
$var wire 1 C \counter_reg[12]_i_1_n_2  $end
$var wire 1 D \counter_reg[12]_i_1_n_3  $end
$var wire 1 E \counter_reg[12]_i_1_n_5  $end
$var wire 1 F \counter_reg[12]_i_1_n_6  $end
$var wire 1 G \counter_reg[12]_i_1_n_7  $end
$var wire 1 H \counter_reg[4]_i_1_n_0  $end
$var wire 1 I \counter_reg[4]_i_1_n_1  $end
$var wire 1 J \counter_reg[4]_i_1_n_2  $end
$var wire 1 K \counter_reg[4]_i_1_n_3  $end
$var wire 1 L \counter_reg[4]_i_1_n_4  $end
$var wire 1 M \counter_reg[4]_i_1_n_5  $end
$var wire 1 N \counter_reg[4]_i_1_n_6  $end
$var wire 1 O \counter_reg[4]_i_1_n_7  $end
$var wire 1 P \counter_reg[8]_i_1_n_0  $end
$var wire 1 Q \counter_reg[8]_i_1_n_1  $end
$var wire 1 R \counter_reg[8]_i_1_n_2  $end
$var wire 1 S \counter_reg[8]_i_1_n_3  $end
$var wire 1 T \counter_reg[8]_i_1_n_4  $end
$var wire 1 U \counter_reg[8]_i_1_n_5  $end
$var wire 1 V \counter_reg[8]_i_1_n_6  $end
$var wire 1 W \counter_reg[8]_i_1_n_7  $end
$var wire 1 X load $end
$var wire 1 Y reset $end
$var wire 1 Z reset_IBUF $end
$var wire 1 $ sample_ENABLE $end
$var wire 1 [ sample_ENABLE_OBUF $end
$var wire 1 \ sample_ENABLE_i_3_n_0 $end
$var wire 1 ] sample_ENABLE_i_4_n_0 $end
$var wire 1 ^ sample_ENABLE_i_5_n_0 $end
$var wire 1 _ sample_ENABLE_i_6_n_0 $end
$var wire 1 ` sample_ENABLE_i_7_n_0 $end
$var wire 1 a sample_ENABLE_reg_i_2_n_0 $end
$var wire 1 b sample_ENABLE_reg_i_2_n_1 $end
$var wire 1 c sample_ENABLE_reg_i_2_n_2 $end
$var wire 1 d sample_ENABLE_reg_i_2_n_3 $end
$var wire 2 e \NLW_counter_reg[12]_i_1_CO_UNCONNECTED  [1:0] $end
$var wire 1 f \NLW_counter_reg[12]_i_1_O_UNCONNECTED  [0:0] $end
$var wire 3 g NLW_sample_ENABLE_reg_i_1_CO_UNCONNECTED [2:0] $end
$var wire 4 h NLW_sample_ENABLE_reg_i_1_O_UNCONNECTED [3:0] $end
$var wire 4 i NLW_sample_ENABLE_reg_i_2_O_UNCONNECTED [3:0] $end
$upscope $end
$upscope $end
$enddefinitions $end

#0
$dumpvars
0!
1"
b111 #
x$
b111 %
b111 &
0'
0(
0)
x*
x+
x,
x-
x.
x/
x0
x1
x2
x3
x4
x5
x6
x7
x8
x9
bx :
x;
x<
x=
x>
x?
x@
xA
xB
xC
xD
xE
xF
xG
xH
xI
xJ
xK
xL
xM
xN
xO
xP
xQ
xR
xS
xT
xU
xV
xW
xX
1Y
1Z
x[
x\
x]
x^
x_
x`
xa
xb
xc
xd
b0x e
xf
b0 g
b0xx h
bx i
$end

#100
0$
0*
0+
0,
0-
1.
0/
00
01
02
03
04
05
06
07
08
09
b0 :
0;
0<
0=
0>
0?
0@
0A
1B
0C
0D
0E
0F
0G
0H
0I
0J
0K
0L
0M
0N
0O
0P
0Q
0R
0S
0T
0U
0V
0W
0X
0[
1\
1]
1^
0_
0`
0a
0b
0c
0d
b0 e
0f
b1 h
b1101 i

#5000
1!
1'
1(
1)

#10000
0!
0'
0(
0)

#15000
1!
1'
1(
1)

#20000
0!
0'
0(
0)

#25000
1!
0"
1'
1(
1)
0Y
0Z

#30000
0!
0'
0(
0)

#35000
1!
1'
1(
1)

#40000
0!
0'
0(
0)

#45000
1!
1'
1(
1)

#50000
0!
0'
0(
0)

#55000
1!
1'
1(
1)

#60000
0!
0'
0(
0)

#65000
1!
1'
1(
1)

#70000
0!
0'
0(
0)

#75000
1!
1'
1(
1)

#80000
0!
0'
0(
0)

#85000
1!
1'
1(
1)

#90000
0!
0'
0(
0)

#95000
1!
1'
1(
1)

#100000
0!
0'
0(
0)

#105000
1!
1'
1(
1)

#105100
1*
0.
b1 :
1>
1A
0B

#110000
0!
0'
0(
0)

#115000
1!
1'
1(
1)

#115100
0*
1-
1.
b10 :
0=
0>
0@
1A
1B

#120000
0!
0'
0(
0)

#125000
1!
1'
1(
1)

#125100
1*
0.
b11 :
1=
1>
1@
0A
0B

#130000
0!
0'
0(
0)

#135000
1!
1'
1(
1)

#135100
0*
1,
0-
1.
b100 :
0<
0=
0>
0?
1@
0A
1B

#140000
0!
0'
0(
0)

#145000
1!
1'
1(
1)

#145100
1*
0.
b101 :
1>
1A
0B

#150000
0!
0'
0(
0)

#155000
1!
1'
1(
1)

#155100
0*
1-
1.
b110 :
0<
0=
0>
0?
1@
1A
1B
1`
1d
b1110 i

#160000
0!
0'
0(
0)

#165000
1!
1'
1(
1)

#165100
1*
0.
b111 :
1<
1=
1>
1?
0@
0A
0B
0`
0d
b1101 i

#170000
0!
0'
0(
0)

#175000
1!
1'
1(
1)

#175100
0*
1+
0,
0-
1.
b1000 :
0;
0<
0=
0>
1?
0@
0A
1B
0O

#180000
0!
0'
0(
0)

#185000
1!
1'
1(
1)

#185100
1*
0.
b1001 :
1>
1A
0B

#190000
0!
0'
0(
0)

#195000
1!
1'
1(
1)

#195100
0*
1-
1.
b1010 :
0=
0>
0@
1A
1B

#200000
0!
0'
0(
0)

#205000
1!
1'
1(
1)

#205100
1*
0.
b1011 :
1=
1>
1@
0A
0B

#210000
0!
0'
0(
0)

#215000
1!
1'
1(
1)

#215100
0*
1,
0-
1.
b1100 :
0;
0<
0=
0>
1?
1@
0A
1B
0O

#220000
0!
0'
0(
0)

#225000
1!
1'
1(
1)

#225100
1*
0.
b1101 :
1>
1A
0B

#230000
0!
0'
0(
0)

#235000
1!
1'
1(
1)

#235100
0*
1-
1.
b1110 :
0;
0<
0=
0>
1?
1@
1A
1B
0O
1`
1d
b1110 i

#240000
0!
0'
0(
0)

#245000
1!
1'
1(
1)

#245100
1*
0.
b1111 :
1;
1<
1=
1>
0?
0@
0A
0B
1O
0`
0d
b1101 i

#250000
0!
0'
0(
0)

#255000
1!
1'
1(
1)

#255100
0*
0+
0,
0-
1.
15
b10000 :
0;
0<
0=
0>
0?
0@
0A
1B
0K
0N
1O

#260000
0!
0'
0(
0)

#265000
1!
1'
1(
1)

#265100
1*
0.
b10001 :
1>
1A
0B

#270000
0!
0'
0(
0)

#275000
1!
1'
1(
1)

#275100
0*
1-
1.
b10010 :
0=
0>
0@
1A
1B

#280000
0!
0'
0(
0)

#285000
1!
1'
1(
1)

#285100
1*
0.
b10011 :
1=
1>
1@
0A
0B

#290000
0!
0'
0(
0)

#295000
1!
1'
1(
1)

#295100
0*
1,
0-
1.
b10100 :
0<
0=
0>
0?
1@
0A
1B

#300000
0!
0'
0(
0)

#305000
1!
1'
1(
1)

#305100
1*
0.
b10101 :
1>
1A
0B

#310000
0!
0'
0(
0)

#315000
1!
1'
1(
1)

#315100
0*
1-
1.
b10110 :
0<
0=
0>
0?
1@
1A
1B
1`
1d
b1110 i

#320000
0!
0'
0(
0)

#325000
1!
1'
1(
1)

#325100
1*
0.
b10111 :
1<
1=
1>
1?
0@
0A
0B
0`
0d
b1101 i

#330000
0!
0'
0(
0)

#335000
1!
1'
1(
1)

#335100
0*
1+
0,
0-
1.
b11000 :
0;
0<
0=
0>
1?
0@
0A
1B
0K
0N
1O

#340000
0!
0'
0(
0)

#345000
1!
1'
1(
1)

#345100
1*
0.
b11001 :
1>
1A
0B

#350000
0!
0'
0(
0)

#355000
1!
1'
1(
1)

#355100
0*
1-
1.
b11010 :
0=
0>
0@
1A
1B

#360000
0!
0'
0(
0)

#365000
1!
1'
1(
1)

#365100
1*
0.
b11011 :
1=
1>
1@
0A
0B

#370000
0!
0'
0(
0)

#375000
1!
1'
1(
1)

#375100
0*
1,
0-
1.
b11100 :
0;
0<
0=
0>
1?
1@
0A
1B
0K
0N
1O

#380000
0!
0'
0(
0)

#385000
1!
1'
1(
1)

#385100
1*
0.
b11101 :
1>
1A
0B

#390000
0!
0'
0(
0)

#395000
1!
1'
1(
1)

#395100
0*
1-
1.
b11110 :
0;
0<
0=
0>
1?
1@
1A
1B
0K
0N
1O
1`
1d
b1110 i

#400000
0!
0'
0(
0)

#405000
1!
1'
1(
1)

#405100
1*
0.
b11111 :
1;
1<
1=
1>
0?
0@
0A
0B
1K
1N
0O
0`
0d
b1101 i

#410000
0!
0'
0(
0)

#415000
1!
1'
1(
1)

#415100
0*
0+
0,
0-
1.
14
05
b100000 :
0;
0<
0=
0>
0?
0@
0A
1B
0J
0K
0M
1N
0O

#420000
0!
0'
0(
0)

#425000
1!
1'
1(
1)

#425100
1*
0.
b100001 :
1>
1A
0B

#430000
0!
0'
0(
0)

#435000
1!
1'
1(
1)

#435100
0*
1-
1.
b100010 :
0=
0>
0@
1A
1B

#440000
0!
0'
0(
0)

#445000
1!
1'
1(
1)

#445100
1*
0.
b100011 :
1=
1>
1@
0A
0B

#450000
0!
0'
0(
0)

#455000
1!
1'
1(
1)

#455100
0*
1,
0-
1.
b100100 :
0<
0=
0>
0?
1@
0A
1B

#460000
0!
0'
0(
0)

#465000
1!
1'
1(
1)

#465100
1*
0.
b100101 :
1>
1A
0B

#470000
0!
0'
0(
0)

#475000
1!
1'
1(
1)

#475100
0*
1-
1.
b100110 :
0<
0=
0>
0?
1@
1A
1B
1`
1d
b1110 i

#480000
0!
0'
0(
0)

#485000
1!
1'
1(
1)

#485100
1*
0.
b100111 :
1<
1=
1>
1?
0@
0A
0B
0`
0d
b1101 i

#490000
0!
0'
0(
0)

#495000
1!
1'
1(
1)

#495100
0*
1+
0,
0-
1.
b101000 :
0;
0<
0=
0>
1?
0@
0A
1B
0O

#500000
0!
0'
0(
0)

#505000
1!
1'
1(
1)

#505100
1*
0.
b101001 :
1>
1A
0B

#510000
0!
0'
0(
0)

#515000
1!
1'
1(
1)

#515100
0*
1-
1.
b101010 :
0=
0>
0@
1A
1B

#520000
0!
0'
0(
0)

#525000
1!
1'
1(
1)

#525100
1*
0.
b101011 :
1=
1>
1@
0A
0B

#530000
0!
0'
0(
0)

#535000
1!
1'
1(
1)

#535100
0*
1,
0-
1.
b101100 :
0;
0<
0=
0>
1?
1@
0A
1B
0O

#540000
0!
0'
0(
0)

#545000
1!
1'
1(
1)

#545100
1*
0.
b101101 :
1>
1A
0B

#550000
0!
0'
0(
0)

#555000
1!
1'
1(
1)

#555100
0*
1-
1.
b101110 :
0;
0<
0=
0>
1?
1@
1A
1B
0O
1`
1d
b1110 i

#560000
0!
0'
0(
0)

#565000
1!
1'
1(
1)

#565100
1*
0.
b101111 :
1;
1<
1=
1>
0?
0@
0A
0B
1O
0`
0d
b1101 i

#570000
0!
0'
0(
0)

#575000
1!
1'
1(
1)

#575100
0*
0+
0,
0-
1.
15
b110000 :
0;
0<
0=
0>
0?
0@
0A
1B
0J
0K
0M
1N
1O
1_
b1111 i

#580000
0!
0'
0(
0)

#585000
1!
1'
1(
1)

#585100
1*
0.
b110001 :
1>
1A
0B

#590000
0!
0'
0(
0)

#595000
1!
1'
1(
1)

#595100
0*
1-
1.
b110010 :
0=
0>
0@
1A
1B

#600000
0!
0'
0(
0)

#605000
1!
1'
1(
1)

#605100
1*
0.
b110011 :
1=
1>
1@
0A
0B

#610000
0!
0'
0(
0)

#615000
1!
1'
1(
1)

#615100
0*
1,
0-
1.
b110100 :
0<
0=
0>
0?
1@
0A
1B

#620000
0!
0'
0(
0)

#625000
1!
1'
1(
1)

#625100
1*
0.
b110101 :
1>
1A
0B

#630000
0!
0'
0(
0)

#635000
1!
1'
1(
1)

#635100
0*
0,
0-
0.
04
05
b110110 :
0<
0=
0>
0?
0@
0A
0B
0N
0O
1X
1`
1a
1b
1c
1d
b10 h
b0 i

#640000
0!
0'
0(
0)

#645000
1!
1'
1(
1)

#645100
1$
1.
b0 :
1B
0X
1[
0_
0`
0a
0b
0c
0d
b1 h
b1101 i

#650000
0!
0'
0(
0)

#655000
1!
1'
1(
1)

#655100
0$
1*
0.
b1 :
1>
1A
0B
0[

#660000
0!
0'
0(
0)

#665000
1!
1'
1(
1)

#665100
0*
1-
1.
b10 :
0=
0>
0@
1A
1B

#670000
0!
0'
0(
0)

#675000
1!
1'
1(
1)

#675100
1*
0.
b11 :
1=
1>
1@
0A
0B

#680000
0!
0'
0(
0)

#685000
1!
1'
1(
1)

#685100
0*
1,
0-
1.
b100 :
0<
0=
0>
0?
1@
0A
1B

#690000
0!
0'
0(
0)

#695000
1!
1'
1(
1)

#695100
1*
0.
b101 :
1>
1A
0B

#700000
0!
0'
0(
0)

#705000
1!
1'
1(
1)

#705100
0*
1-
1.
b110 :
0<
0=
0>
0?
1@
1A
1B
1`
1d
b1110 i

#710000
0!
0'
0(
0)

#715000
1!
1'
1(
1)

#715100
1*
0.
b111 :
1<
1=
1>
1?
0@
0A
0B
0`
0d
b1101 i

#720000
0!
0'
0(
0)

#725000
1!
1'
1(
1)

#725100
0*
1+
0,
0-
1.
b1000 :
0;
0<
0=
0>
1?
0@
0A
1B
0O

#730000
0!
0'
0(
0)

#735000
1!
1'
1(
1)

#735100
1*
0.
b1001 :
1>
1A
0B

#740000
0!
0'
0(
0)

#745000
1!
1'
1(
1)

#745100
0*
1-
1.
b1010 :
0=
0>
0@
1A
1B

#750000
0!
0'
0(
0)

#755000
1!
1'
1(
1)

#755100
1*
0.
b1011 :
1=
1>
1@
0A
0B

#760000
0!
0'
0(
0)

#765000
1!
1'
1(
1)

#765100
0*
1,
0-
1.
b1100 :
0;
0<
0=
0>
1?
1@
0A
1B
0O

#770000
0!
0'
0(
0)

#775000
1!
1'
1(
1)

#775100
1*
0.
b1101 :
1>
1A
0B

#780000
0!
0'
0(
0)

#785000
1!
1'
1(
1)

#785100
0*
1-
1.
b1110 :
0;
0<
0=
0>
1?
1@
1A
1B
0O
1`
1d
b1110 i

#790000
0!
0'
0(
0)

#795000
1!
1'
1(
1)

#795100
1*
0.
b1111 :
1;
1<
1=
1>
0?
0@
0A
0B
1O
0`
0d
b1101 i

#800000
0!
0'
0(
0)

#805000
1!
1'
1(
1)

#805100
0*
0+
0,
0-
1.
15
b10000 :
0;
0<
0=
0>
0?
0@
0A
1B
0K
0N
1O

#810000
0!
0'
0(
0)

#815000
1!
1'
1(
1)

#815100
1*
0.
b10001 :
1>
1A
0B

#820000
0!
0'
0(
0)

#825000
1!
1'
1(
1)

#825100
0*
1-
1.
b10010 :
0=
0>
0@
1A
1B

#830000
0!
0'
0(
0)

#835000
1!
1'
1(
1)

#835100
1*
0.
b10011 :
1=
1>
1@
0A
0B

#840000
0!
0'
0(
0)

#845000
1!
1'
1(
1)

#845100
0*
1,
0-
1.
b10100 :
0<
0=
0>
0?
1@
0A
1B

#850000
0!
0'
0(
0)

#855000
1!
1'
1(
1)

#855100
1*
0.
b10101 :
1>
1A
0B

#860000
0!
0'
0(
0)

#865000
1!
1'
1(
1)

#865100
0*
1-
1.
b10110 :
0<
0=
0>
0?
1@
1A
1B
1`
1d
b1110 i

#870000
0!
0'
0(
0)

#875000
1!
1'
1(
1)

#875100
1*
0.
b10111 :
1<
1=
1>
1?
0@
0A
0B
0`
0d
b1101 i

#880000
0!
0'
0(
0)

#885000
1!
1'
1(
1)

#885100
0*
1+
0,
0-
1.
b11000 :
0;
0<
0=
0>
1?
0@
0A
1B
0K
0N
1O

#890000
0!
0'
0(
0)

#895000
1!
1'
1(
1)

#895100
1*
0.
b11001 :
1>
1A
0B

#900000
0!
0'
0(
0)

#905000
1!
1'
1(
1)

#905100
0*
1-
1.
b11010 :
0=
0>
0@
1A
1B

#910000
0!
0'
0(
0)

#915000
1!
1'
1(
1)

#915100
1*
0.
b11011 :
1=
1>
1@
0A
0B

#920000
0!
0'
0(
0)

#925000
1!
1'
1(
1)

#925100
0*
1,
0-
1.
b11100 :
0;
0<
0=
0>
1?
1@
0A
1B
0K
0N
1O

#930000
0!
0'
0(
0)

#935000
1!
1'
1(
1)

#935100
1*
0.
b11101 :
1>
1A
0B

#940000
0!
0'
0(
0)

#945000
1!
1'
1(
1)

#945100
0*
1-
1.
b11110 :
0;
0<
0=
0>
1?
1@
1A
1B
0K
0N
1O
1`
1d
b1110 i

#950000
0!
0'
0(
0)

#955000
1!
1'
1(
1)

#955100
1*
0.
b11111 :
1;
1<
1=
1>
0?
0@
0A
0B
1K
1N
0O
0`
0d
b1101 i

#960000
0!
0'
0(
0)

#965000
1!
1'
1(
1)

#965100
0*
0+
0,
0-
1.
14
05
b100000 :
0;
0<
0=
0>
0?
0@
0A
1B
0J
0K
0M
1N
0O

#970000
0!
0'
0(
0)

#975000
1!
1'
1(
1)

#975100
1*
0.
b100001 :
1>
1A
0B

#980000
0!
0'
0(
0)

#985000
1!
1'
1(
1)

#985100
0*
1-
1.
b100010 :
0=
0>
0@
1A
1B

#990000
0!
0'
0(
0)

#995000
1!
1'
1(
1)

#995100
1*
0.
b100011 :
1=
1>
1@
0A
0B

#1000000
0!
0'
0(
0)

#1005000
1!
1'
1(
1)

#1005100
0*
1,
0-
1.
b100100 :
0<
0=
0>
0?
1@
0A
1B

#1010000
0!
0'
0(
0)

#1015000
1!
1'
1(
1)

#1015100
1*
0.
b100101 :
1>
1A
0B

#1020000
0!
0'
0(
0)

#1025000
1!
1'
1(
1)

#1025100
0*
1-
1.
b100110 :
0<
0=
0>
0?
1@
1A
1B
1`
1d
b1110 i

#1030000
0!
0'
0(
0)

#1035000
1!
1'
1(
1)

#1035100
1*
0.
b100111 :
1<
1=
1>
1?
0@
0A
0B
0`
0d
b1101 i

#1040000
0!
0'
0(
0)

#1045000
1!
1'
1(
1)

#1045100
0*
1+
0,
0-
1.
b101000 :
0;
0<
0=
0>
1?
0@
0A
1B
0O

#1050000
0!
0'
0(
0)

#1055000
1!
1'
1(
1)

#1055100
1*
0.
b101001 :
1>
1A
0B

#1060000
0!
0'
0(
0)

#1065000
1!
1'
1(
1)

#1065100
0*
1-
1.
b101010 :
0=
0>
0@
1A
1B

#1070000
0!
0'
0(
0)

#1075000
1!
1'
1(
1)

#1075100
1*
0.
b101011 :
1=
1>
1@
0A
0B

#1080000
0!
0'
0(
0)

#1085000
1!
1'
1(
1)

#1085100
0*
1,
0-
1.
b101100 :
0;
0<
0=
0>
1?
1@
0A
1B
0O

#1090000
0!
0'
0(
0)

#1095000
1!
1'
1(
1)

#1095100
1*
0.
b101101 :
1>
1A
0B

#1100000
0!
0'
0(
0)

#1105000
1!
1'
1(
1)

#1105100
0*
1-
1.
b101110 :
0;
0<
0=
0>
1?
1@
1A
1B
0O
1`
1d
b1110 i

#1110000
0!
0'
0(
0)

#1115000
1!
1'
1(
1)

#1115100
1*
0.
b101111 :
1;
1<
1=
1>
0?
0@
0A
0B
1O
0`
0d
b1101 i

#1120000
0!
0'
0(
0)

#1125000
1!
1'
1(
1)

#1125100
0*
0+
0,
0-
1.
15
b110000 :
0;
0<
0=
0>
0?
0@
0A
1B
0J
0K
0M
1N
1O
1_
b1111 i

#1130000
0!
0'
0(
0)

#1135000
1!
1'
1(
1)

#1135100
1*
0.
b110001 :
1>
1A
0B

#1140000
0!
0'
0(
0)

#1145000
1!
1'
1(
1)

#1145100
0*
1-
1.
b110010 :
0=
0>
0@
1A
1B

#1150000
0!
0'
0(
0)

#1155000
1!
1'
1(
1)

#1155100
1*
0.
b110011 :
1=
1>
1@
0A
0B

#1160000
0!
0'
0(
0)

#1165000
1!
1'
1(
1)

#1165100
0*
1,
0-
1.
b110100 :
0<
0=
0>
0?
1@
0A
1B

#1170000
0!
0'
0(
0)

#1175000
1!
1'
1(
1)

#1175100
1*
0.
b110101 :
1>
1A
0B

#1180000
0!
0'
0(
0)

#1185000
1!
1'
1(
1)

#1185100
0*
0,
0-
0.
04
05
b110110 :
0<
0=
0>
0?
0@
0A
0B
0N
0O
1X
1`
1a
1b
1c
1d
b10 h
b0 i

#1190000
0!
0'
0(
0)

#1195000
1!
1'
1(
1)

#1195100
1$
1.
b0 :
1B
0X
1[
0_
0`
0a
0b
0c
0d
b1 h
b1101 i

#1200000
0!
0'
0(
0)

#1205000
1!
1'
1(
1)

#1205100
0$
1*
0.
b1 :
1>
1A
0B
0[

#1210000
0!
0'
0(
0)

#1215000
1!
1'
1(
1)

#1215100
0*
1-
1.
b10 :
0=
0>
0@
1A
1B

#1220000
0!
0'
0(
0)

#1225000
1!
1'
1(
1)

#1225100
1*
0.
b11 :
1=
1>
1@
0A
0B

#1230000
0!
0'
0(
0)

#1235000
1!
1'
1(
1)

#1235100
0*
1,
0-
1.
b100 :
0<
0=
0>
0?
1@
0A
1B

#1240000
0!
0'
0(
0)

#1245000
1!
1'
1(
1)

#1245100
1*
0.
b101 :
1>
1A
0B

#1250000
0!
0'
0(
0)

#1255000
1!
1'
1(
1)

#1255100
0*
1-
1.
b110 :
0<
0=
0>
0?
1@
1A
1B
1`
1d
b1110 i

#1260000
0!
0'
0(
0)

#1265000
1!
1'
1(
1)

#1265100
1*
0.
b111 :
1<
1=
1>
1?
0@
0A
0B
0`
0d
b1101 i

#1270000
0!
0'
0(
0)

#1275000
1!
1'
1(
1)

#1275100
0*
1+
0,
0-
1.
b1000 :
0;
0<
0=
0>
1?
0@
0A
1B
0O

#1280000
0!
0'
0(
0)

#1285000
1!
1'
1(
1)

#1285100
1*
0.
b1001 :
1>
1A
0B

#1290000
0!
0'
0(
0)

#1295000
1!
1'
1(
1)

#1295100
0*
1-
1.
b1010 :
0=
0>
0@
1A
1B

#1300000
0!
0'
0(
0)

#1305000
1!
1'
1(
1)

#1305100
1*
0.
b1011 :
1=
1>
1@
0A
0B

#1310000
0!
0'
0(
0)

#1315000
1!
1'
1(
1)

#1315100
0*
1,
0-
1.
b1100 :
0;
0<
0=
0>
1?
1@
0A
1B
0O

#1320000
0!
0'
0(
0)

#1325000
1!
1'
1(
1)

#1325100
1*
0.
b1101 :
1>
1A
0B

#1330000
0!
0'
0(
0)

#1335000
1!
1'
1(
1)

#1335100
0*
1-
1.
b1110 :
0;
0<
0=
0>
1?
1@
1A
1B
0O
1`
1d
b1110 i

#1340000
0!
0'
0(
0)

#1345000
1!
1'
1(
1)

#1345100
1*
0.
b1111 :
1;
1<
1=
1>
0?
0@
0A
0B
1O
0`
0d
b1101 i

#1350000
0!
0'
0(
0)

#1355000
1!
1'
1(
1)

#1355100
0*
0+
0,
0-
1.
15
b10000 :
0;
0<
0=
0>
0?
0@
0A
1B
0K
0N
1O

#1360000
0!
0'
0(
0)

#1365000
1!
1'
1(
1)

#1365100
1*
0.
b10001 :
1>
1A
0B

#1370000
0!
0'
0(
0)

#1375000
1!
1'
1(
1)

#1375100
0*
1-
1.
b10010 :
0=
0>
0@
1A
1B

#1380000
0!
0'
0(
0)

#1385000
1!
1'
1(
1)

#1385100
1*
0.
b10011 :
1=
1>
1@
0A
0B

#1390000
0!
0'
0(
0)

#1395000
1!
1'
1(
1)

#1395100
0*
1,
0-
1.
b10100 :
0<
0=
0>
0?
1@
0A
1B

#1400000
0!
0'
0(
0)

#1405000
1!
1'
1(
1)

#1405100
1*
0.
b10101 :
1>
1A
0B

#1410000
0!
0'
0(
0)

#1415000
1!
1'
1(
1)

#1415100
0*
1-
1.
b10110 :
0<
0=
0>
0?
1@
1A
1B
1`
1d
b1110 i

#1420000
0!
0'
0(
0)

#1425000
1!
1'
1(
1)

#1425100
1*
0.
b10111 :
1<
1=
1>
1?
0@
0A
0B
0`
0d
b1101 i

#1430000
0!
0'
0(
0)

#1435000
1!
1'
1(
1)

#1435100
0*
1+
0,
0-
1.
b11000 :
0;
0<
0=
0>
1?
0@
0A
1B
0K
0N
1O

#1440000
0!
0'
0(
0)

#1445000
1!
1'
1(
1)

#1445100
1*
0.
b11001 :
1>
1A
0B

#1450000
0!
0'
0(
0)

#1455000
1!
1'
1(
1)

#1455100
0*
1-
1.
b11010 :
0=
0>
0@
1A
1B

#1460000
0!
0'
0(
0)

#1465000
1!
1'
1(
1)

#1465100
1*
0.
b11011 :
1=
1>
1@
0A
0B

#1470000
0!
0'
0(
0)

#1475000
1!
1'
1(
1)

#1475100
0*
1,
0-
1.
b11100 :
0;
0<
0=
0>
1?
1@
0A
1B
0K
0N
1O

#1480000
0!
0'
0(
0)

#1485000
1!
1'
1(
1)

#1485100
1*
0.
b11101 :
1>
1A
0B

#1490000
0!
0'
0(
0)

#1495000
1!
1'
1(
1)

#1495100
0*
1-
1.
b11110 :
0;
0<
0=
0>
1?
1@
1A
1B
0K
0N
1O
1`
1d
b1110 i

#1500000
0!
0'
0(
0)

#1505000
1!
1'
1(
1)

#1505100
1*
0.
b11111 :
1;
1<
1=
1>
0?
0@
0A
0B
1K
1N
0O
0`
0d
b1101 i

#1510000
0!
0'
0(
0)

#1515000
1!
1'
1(
1)

#1515100
0*
0+
0,
0-
1.
14
05
b100000 :
0;
0<
0=
0>
0?
0@
0A
1B
0J
0K
0M
1N
0O

#1520000
0!
0'
0(
0)

#1525000
1!
1'
1(
1)

#1525100
1*
0.
b100001 :
1>
1A
0B

#1530000
0!
0'
0(
0)

#1535000
1!
1'
1(
1)

#1535100
0*
1-
1.
b100010 :
0=
0>
0@
1A
1B

#1540000
0!
0'
0(
0)

#1545000
1!
1'
1(
1)

#1545100
1*
0.
b100011 :
1=
1>
1@
0A
0B

#1550000
0!
0'
0(
0)

#1555000
1!
1'
1(
1)

#1555100
0*
1,
0-
1.
b100100 :
0<
0=
0>
0?
1@
0A
1B

#1560000
0!
0'
0(
0)

#1565000
1!
1'
1(
1)

#1565100
1*
0.
b100101 :
1>
1A
0B

#1570000
0!
0'
0(
0)

#1575000
1!
1'
1(
1)

#1575100
0*
1-
1.
b100110 :
0<
0=
0>
0?
1@
1A
1B
1`
1d
b1110 i

#1580000
0!
0'
0(
0)

#1585000
1!
1'
1(
1)

#1585100
1*
0.
b100111 :
1<
1=
1>
1?
0@
0A
0B
0`
0d
b1101 i

#1590000
0!
0'
0(
0)

#1595000
1!
1'
1(
1)

#1595100
0*
1+
0,
0-
1.
b101000 :
0;
0<
0=
0>
1?
0@
0A
1B
0O

#1600000
0!
0'
0(
0)

#1605000
1!
1'
1(
1)

#1605100
1*
0.
b101001 :
1>
1A
0B

#1610000
0!
0'
0(
0)

#1615000
1!
1'
1(
1)

#1615100
0*
1-
1.
b101010 :
0=
0>
0@
1A
1B

#1620000
0!
0'
0(
0)

#1625000
1!
1'
1(
1)

#1625100
1*
0.
b101011 :
1=
1>
1@
0A
0B

#1630000
0!
0'
0(
0)

#1635000
1!
1'
1(
1)

#1635100
0*
1,
0-
1.
b101100 :
0;
0<
0=
0>
1?
1@
0A
1B
0O

#1640000
0!
0'
0(
0)

#1645000
1!
1'
1(
1)

#1645100
1*
0.
b101101 :
1>
1A
0B

#1650000
0!
0'
0(
0)

#1655000
1!
1'
1(
1)

#1655100
0*
1-
1.
b101110 :
0;
0<
0=
0>
1?
1@
1A
1B
0O
1`
1d
b1110 i

#1660000
0!
0'
0(
0)

#1665000
1!
1'
1(
1)

#1665100
1*
0.
b101111 :
1;
1<
1=
1>
0?
0@
0A
0B
1O
0`
0d
b1101 i

#1670000
0!
0'
0(
0)

#1675000
1!
1'
1(
1)

#1675100
0*
0+
0,
0-
1.
15
b110000 :
0;
0<
0=
0>
0?
0@
0A
1B
0J
0K
0M
1N
1O
1_
b1111 i

#1680000
0!
0'
0(
0)

#1685000
1!
1'
1(
1)

#1685100
1*
0.
b110001 :
1>
1A
0B

#1690000
0!
0'
0(
0)

#1695000
1!
1'
1(
1)

#1695100
0*
1-
1.
b110010 :
0=
0>
0@
1A
1B

#1700000
0!
0'
0(
0)

#1705000
1!
1'
1(
1)

#1705100
1*
0.
b110011 :
1=
1>
1@
0A
0B

