project2/Working/PartA/lab_project_2_partA.sim/sim_1/synth/timing/xsim/baud_controller_tb.vcd
$date
   Mon Nov 11 02:06:53 2024
$end

$version
  2024.1
  $dumpfile ("baud_controller_tb.vcd") 
$end

$timescale
  1ps
$end

$scope module baud_controller_tb $end
$var reg 1 ! clk $end
$var reg 1 " reset $end
$var reg 3 # baud_select [2:0] $end
$var wire 1 $ sample_ENABLE $end
$scope module baud_controller_bench $end
$var wire 3 % baud_select [2:0] $end
$var wire 3 & baud_select_IBUF [2:0] $end
$var wire 1 ' clk $end
$var wire 1 ( clk_IBUF $end
$var wire 1 ) clk_IBUF_BUFG $end
$var wire 1 * \counter[0]_i_2_n_0  $end
$var wire 1 + \counter[0]_i_3_n_0  $end
$var wire 1 , \counter[0]_i_4_n_0  $end
$var wire 1 - \counter[0]_i_5_n_0  $end
$var wire 1 . \counter[0]_i_6_n_0  $end
$var wire 1 / \counter[12]_i_2_n_0  $end
$var wire 1 0 \counter[12]_i_3_n_0  $end
$var wire 1 1 \counter[12]_i_4_n_0  $end
$var wire 1 2 \counter[4]_i_2_n_0  $end
$var wire 1 3 \counter[4]_i_3_n_0  $end
$var wire 1 4 \counter[4]_i_4_n_0  $end
$var wire 1 5 \counter[4]_i_5_n_0  $end
$var wire 1 6 \counter[8]_i_2_n_0  $end
$var wire 1 7 \counter[8]_i_3_n_0  $end
$var wire 1 8 \counter[8]_i_4_n_0  $end
$var wire 1 9 \counter[8]_i_5_n_0  $end
$var wire 15 : counter_reg [14:0] $end
$var wire 1 ; \counter_reg[0]_i_1_n_0  $end
$var wire 1 < \counter_reg[0]_i_1_n_1  $end
$var wire 1 = \counter_reg[0]_i_1_n_2  $end
$var wire 1 > \counter_reg[0]_i_1_n_3  $end
$var wire 1 ? \counter_reg[0]_i_1_n_4  $end
$var wire 1 @ \counter_reg[0]_i_1_n_5  $end
$var wire 1 A \counter_reg[0]_i_1_n_6  $end
$var wire 1 B \counter_reg[0]_i_1_n_7  $end
$var wire 1 C \counter_reg[12]_i_1_n_2  $end
$var wire 1 D \counter_reg[12]_i_1_n_3  $end
$var wire 1 E \counter_reg[12]_i_1_n_5  $end
$var wire 1 F \counter_reg[12]_i_1_n_6  $end
$var wire 1 G \counter_reg[12]_i_1_n_7  $end
$var wire 1 H \counter_reg[4]_i_1_n_0  $end
$var wire 1 I \counter_reg[4]_i_1_n_1  $end
$var wire 1 J \counter_reg[4]_i_1_n_2  $end
$var wire 1 K \counter_reg[4]_i_1_n_3  $end
$var wire 1 L \counter_reg[4]_i_1_n_4  $end
$var wire 1 M \counter_reg[4]_i_1_n_5  $end
$var wire 1 N \counter_reg[4]_i_1_n_6  $end
$var wire 1 O \counter_reg[4]_i_1_n_7  $end
$var wire 1 P \counter_reg[8]_i_1_n_0  $end
$var wire 1 Q \counter_reg[8]_i_1_n_1  $end
$var wire 1 R \counter_reg[8]_i_1_n_2  $end
$var wire 1 S \counter_reg[8]_i_1_n_3  $end
$var wire 1 T \counter_reg[8]_i_1_n_4  $end
$var wire 1 U \counter_reg[8]_i_1_n_5  $end
$var wire 1 V \counter_reg[8]_i_1_n_6  $end
$var wire 1 W \counter_reg[8]_i_1_n_7  $end
$var wire 1 X load $end
$var wire 1 Y reset $end
$var wire 1 Z reset_IBUF $end
$var wire 1 $ sample_ENABLE $end
$var wire 1 [ sample_ENABLE_OBUF $end
$var wire 1 \ sample_ENABLE_i_3_n_0 $end
$var wire 1 ] sample_ENABLE_i_4_n_0 $end
$var wire 1 ^ sample_ENABLE_i_5_n_0 $end
$var wire 1 _ sample_ENABLE_i_6_n_0 $end
$var wire 1 ` sample_ENABLE_i_7_n_0 $end
$var wire 1 a sample_ENABLE_reg_i_2_n_0 $end
$var wire 1 b sample_ENABLE_reg_i_2_n_1 $end
$var wire 1 c sample_ENABLE_reg_i_2_n_2 $end
$var wire 1 d sample_ENABLE_reg_i_2_n_3 $end
$var wire 2 e \NLW_counter_reg[12]_i_1_CO_UNCONNECTED  [1:0] $end
$var wire 1 f \NLW_counter_reg[12]_i_1_O_UNCONNECTED  [0:0] $end
$var wire 3 g NLW_sample_ENABLE_reg_i_1_CO_UNCONNECTED [2:0] $end
$var wire 4 h NLW_sample_ENABLE_reg_i_1_O_UNCONNECTED [3:0] $end
$var wire 4 i NLW_sample_ENABLE_reg_i_2_O_UNCONNECTED [3:0] $end
$upscope $end
$upscope $end
$enddefinitions $end

#0
$dumpvars
0!
1"
b111 #
x$
b111 %
b111 &
0'
0(
x)
x*
x+
x,
x-
x.
x/
x0
x1
x2
x3
x4
x5
x6
x7
x8
x9
bx :
x;
x<
x=
x>
x?
x@
xA
xB
xC
xD
xE
xF
xG
xH
xI
xJ
xK
xL
xM
xN
xO
xP
xQ
xR
xS
xT
xU
xV
xW
xX
1Y
1Z
x[
x\
x]
x^
x_
x`
xa
xb
xc
xd
b0x e
xf
b0 g
b0xx h
bx i
$end

#100
0*
0+
0,
0-
0/
00
01
02
03
04
05
06
07
08
09
b0 :
0;
0<
0=
0>
0?
0@
0A
0C
0D
0E
0F
0G
0H
0I
0J
0K
0L
0M
0N
0O
0P
0Q
0R
0S
0T
0U
0V
0W
0[
b0 e
0f

#802
0)
1.
1B
0X
0_
0`
0a
0b
0c
0d
b0x h
bx01 i

#1078
0$

#1236
1\
1]
1^
b1 h
b1101 i

#5000
1!
1'
1(

#5802
1)

#10000
0!
0'
0(

#10802
0)

#15000
1!
1'
1(

#15802
1)

#20000
0!
0'
0(

#20802
0)

#25000
1!
0"
1'
1(
0Y
0Z

#25802
1)

#30000
0!
0'
0(

#30802
0)

#35000
1!
1'
1(

#35802
1)

#40000
0!
0'
0(

#40802
0)

#45000
1!
1'
1(

#45802
1)

#50000
0!
0'
0(

#50802
0)

#55000
1!
1'
1(

#55802
1)

#60000
0!
0'
0(

#60802
0)

#65000
1!
1'
1(

#65802
1)

#70000
0!
0'
0(

#70802
0)

#75000
1!
1'
1(

#75802
1)

#80000
0!
0'
0(

#80802
0)

#85000
1!
1'
1(

#85802
1)

#90000
0!
0'
0(

#90802
0)

#95000
1!
1'
1(

#95802
1)

#100000
0!
0'
0(

#100802
0)

#105000
1!
1'
1(

#105802
1)

#105902
1*
0.
b1 :
1>
1A
0B

#110000
0!
0'
0(

#110802
0)

#115000
1!
1'
1(

#115802
1)

#115902
0*
1-
1.
b10 :
0=
0>
0@
1A
1B

#120000
0!
0'
0(

#120802
0)

#125000
1!
1'
1(

#125802
1)

#125902
1*
0.
b11 :
1=
1>
1@
0A
0B

#130000
0!
0'
0(

#130802
0)

#135000
1!
1'
1(

#135802
1)

#135902
0*
1,
0-
1.
b100 :
0<
0=
0>
0?
1@
0A
1B

#140000
0!
0'
0(

#140802
0)

#145000
1!
1'
1(

#145802
1)

#145902
1*
0.
b101 :
1>
1A
0B

#150000
0!
0'
0(

#150802
0)

#155000
1!
1'
1(

#155802
1)

#155902
0*
1-
1.
b110 :
0<
0=
0>
0?
1@
1A
1B

#157038
1`
1d
b1110 i

#160000
0!
0'
0(

#160802
0)

#165000
1!
1'
1(

#165802
1)

#165902
1*
0.
b111 :
1<
1=
1>
1?
0@
0A
0B

#167038
0`
0d
b1101 i

#170000
0!
0'
0(

#170802
0)

#175000
1!
1'
1(

#175802
1)

#175902
0*
1+
0,
0-
1.
b1000 :
0;
0<
0=
0>
1?
0@
0A
1B
0O

#180000
0!
0'
0(

#180802
0)

#185000
1!
1'
1(

#185802
1)

#185902
1*
0.
b1001 :
1>
1A
0B

#190000
0!
0'
0(

#190802
0)

#195000
1!
1'
1(

#195802
1)

#195902
0*
1-
1.
b1010 :
0=
0>
0@
1A
1B

#200000
0!
0'
0(

#200802
0)

#205000
1!
1'
1(

#205802
1)

#205902
1*
0.
b1011 :
1=
1>
1@
0A
0B

#210000
0!
0'
0(

#210802
0)

#215000
1!
1'
1(

#215802
1)

#215902
0*
1,
0-
1.
b1100 :
0;
0<
0=
0>
1?
1@
0A
1B
0O

#220000
0!
0'
0(

#220802
0)

#225000
1!
1'
1(

#225802
1)

#225902
1*
0.
b1101 :
1>
1A
0B

#230000
0!
0'
0(

#230802
0)

#235000
1!
1'
1(

#235802
1)

#235902
0*
1-
1.
b1110 :
0;
0<
0=
0>
1?
1@
1A
1B
0O

#237038
1`
1d
b1110 i

#240000
0!
0'
0(

#240802
0)

#245000
1!
1'
1(

#245802
1)

#245902
1*
0.
b1111 :
1;
1<
1=
1>
0?
0@
0A
0B
1O

#247038
0`
0d
b1101 i

#250000
0!
0'
0(

#250802
0)

#255000
1!
1'
1(

#255802
1)

#255902
0*
0+
0,
0-
1.
15
b10000 :
0;
0<
0=
0>
0?
0@
0A
1B
0K
0N
1O

#260000
0!
0'
0(

#260802
0)

#265000
1!
1'
1(

#265802
1)

#265902
1*
0.
b10001 :
1>
1A
0B

#270000
0!
0'
0(

#270802
0)

#275000
1!
1'
1(

#275802
1)

#275902
0*
1-
1.
b10010 :
0=
0>
0@
1A
1B

#280000
0!
0'
0(

#280802
0)

#285000
1!
1'
1(

#285802
1)

#285902
1*
0.
b10011 :
1=
1>
1@
0A
0B

#290000
0!
0'
0(

#290802
0)

#295000
1!
1'
1(

#295802
1)

#295902
0*
1,
0-
1.
b10100 :
0<
0=
0>
0?
1@
0A
1B

#300000
0!
0'
0(

#300802
0)

#305000
1!
1'
1(

#305802
1)

#305902
1*
0.
b10101 :
1>
1A
0B

#310000
0!
0'
0(

#310802
0)

#315000
1!
1'
1(

#315802
1)

#315902
0*
1-
1.
b10110 :
0<
0=
0>
0?
1@
1A
1B

#317038
1`
1d
b1110 i

#320000
0!
0'
0(

#320802
0)

#325000
1!
1'
1(

#325802
1)

#325902
1*
0.
b10111 :
1<
1=
1>
1?
0@
0A
0B

#327038
0`
0d
b1101 i

#330000
0!
0'
0(

#330802
0)

#335000
1!
1'
1(

#335802
1)

#335902
0*
1+
0,
0-
1.
b11000 :
0;
0<
0=
0>
1?
0@
0A
1B
0K
0N
1O

#340000
0!
0'
0(

#340802
0)

#345000
1!
1'
1(

#345802
1)

#345902
1*
0.
b11001 :
1>
1A
0B

#350000
0!
0'
0(

#350802
0)

#355000
1!
1'
1(

#355802
1)

#355902
0*
1-
1.
b11010 :
0=
0>
0@
1A
1B

#360000
0!
0'
0(

#360802
0)

#365000
1!
1'
1(

#365802
1)

#365902
1*
0.
b11011 :
1=
1>
1@
0A
0B

#370000
0!
0'
0(

#370802
0)

#375000
1!
1'
1(

#375802
1)

#375902
0*
1,
0-
1.
b11100 :
0;
0<
0=
0>
1?
1@
0A
1B
0K
0N
1O

#380000
0!
0'
0(

#380802
0)

#385000
1!
1'
1(

#385802
1)

#385902
1*
0.
b11101 :
1>
1A
0B

#390000
0!
0'
0(

#390802
0)

#395000
1!
1'
1(

#395802
1)

#395902
0*
1-
1.
b11110 :
0;
0<
0=
0>
1?
1@
1A
1B
0K
0N
1O

#397038
1`
1d
b1110 i

#400000
0!
0'
0(

#400802
0)

#405000
1!
1'
1(

#405802
1)

#405902
1*
0.
b11111 :
1;
1<
1=
1>
0?
0@
0A
0B
1K
1N
0O

#407038
0`
0d
b1101 i

#410000
0!
0'
0(

#410802
0)

#415000
1!
1'
1(

#415802
1)

#415902
0*
0+
0,
0-
1.
14
05
b100000 :
0;
0<
0=
0>
0?
0@
0A
1B
0J
0K
0M
1N
0O

#420000
0!
0'
0(

#420802
0)

#425000
1!
1'
1(

#425802
1)

#425902
1*
0.
b100001 :
1>
1A
0B

#430000
0!
0'
0(

#430802
0)

#435000
1!
1'
1(

#435802
1)

#435902
0*
1-
1.
b100010 :
0=
0>
0@
1A
1B

#440000
0!
0'
0(

#440802
0)

#445000
1!
1'
1(

#445802
1)

#445902
1*
0.
b100011 :
1=
1>
1@
0A
0B

#450000
0!
0'
0(

#450802
0)

#455000
1!
1'
1(

#455802
1)

#455902
0*
1,
0-
1.
b100100 :
0<
0=
0>
0?
1@
0A
1B

#460000
0!
0'
0(

#460802
0)

#465000
1!
1'
1(

#465802
1)

#465902
1*
0.
b100101 :
1>
1A
0B

#470000
0!
0'
0(

#470802
0)

#475000
1!
1'
1(

#475802
1)

#475902
0*
1-
1.
b100110 :
0<
0=
0>
0?
1@
1A
1B

#477038
1`
1d
b1110 i

#480000
0!
0'
0(

#480802
0)

#485000
1!
1'
1(

#485802
1)

#485902
1*
0.
b100111 :
1<
1=
1>
1?
0@
0A
0B

#487038
0`
0d
b1101 i

#490000
0!
0'
0(

#490802
0)

#495000
1!
1'
1(

#495802
1)

#495902
0*
1+
0,
0-
1.
b101000 :
0;
0<
0=
0>
1?
0@
0A
1B
0O

#500000
0!
0'
0(

#500802
0)

#505000
1!
1'
1(

#505802
1)

#505902
1*
0.
b101001 :
1>
1A
0B

#510000
0!
0'
0(

#510802
0)

#515000
1!
1'
1(

#515802
1)

#515902
0*
1-
1.
b101010 :
0=
0>
0@
1A
1B

#520000
0!
0'
0(

#520802
0)

#525000
1!
1'
1(

#525802
1)

#525902
1*
0.
b101011 :
1=
1>
1@
0A
0B

#530000
0!
0'
0(

#530802
0)

#535000
1!
1'
1(

#535802
1)

#535902
0*
1,
0-
1.
b101100 :
0;
0<
0=
0>
1?
1@
0A
1B
0O

#540000
0!
0'
0(

#540802
0)

#545000
1!
1'
1(

#545802
1)

#545902
1*
0.
b101101 :
1>
1A
0B

#550000
0!
0'
0(

#550802
0)

#555000
1!
1'
1(

#555802
1)

#555902
0*
1-
1.
b101110 :
0;
0<
0=
0>
1?
1@
1A
1B
0O

#557038
1`
1d
b1110 i

#560000
0!
0'
0(

#560802
0)

#565000
1!
1'
1(

#565802
1)

#565902
1*
0.
b101111 :
1;
1<
1=
1>
0?
0@
0A
0B
1O

#567038
0`
0d
b1101 i

#570000
0!
0'
0(

#570802
0)

#575000
1!
1'
1(

#575802
1)

#575902
0*
0+
0,
0-
1.
15
b110000 :
0;
0<
0=
0>
0?
0@
0A
1B
0J
0K
0M
1N
1O

#577038
1_
b1111 i

#580000
0!
0'
0(

#580802
0)

#585000
1!
1'
1(

#585802
1)

#585902
1*
0.
b110001 :
1>
1A
0B

#590000
0!
0'
0(

#590802
0)

#595000
1!
1'
1(

#595802
1)

#595902
0*
1-
1.
b110010 :
0=
0>
0@
1A
1B

#600000
0!
0'
0(

#600802
0)

#605000
1!
1'
1(

#605802
1)

#605902
1*
0.
b110011 :
1=
1>
1@
0A
0B

#610000
0!
0'
0(

#610802
0)

#615000
1!
1'
1(

#615802
1)

#615902
0*
1,
0-
1.
b110100 :
0<
0=
0>
0?
1@
0A
1B

#620000
0!
0'
0(

#620802
0)

#625000
1!
1'
1(

#625802
1)

#625902
1*
0.
b110101 :
1>
1A
0B

#630000
0!
0'
0(

#630802
0)

#635000
1!
1'
1(

#635802
1)

#635902
0*
1-
1.
b110110 :
0<
0=
0>
0?
1@
1A
1B

#637038
0,
0-
0.
04
05
0@
0A
0B
0N
0O
1X
1`
1a
1b
1c
1d
b10 h
b0 i

#640000
0!
0'
0(

#640802
0)

#645000
1!
1'
1(

#645802
1)

#645902
b0 :

#646384
1.
1B
0X
0_
0`
0a
0b
0c
0d
b1 h
b1101 i

#646486
1[

#647464
1$

#650000
0!
0'
0(

#650802
0)

#655000
1!
1'
1(

#655802
1)

#655902
1*
0.
b1 :
1>
1A
0B

#656486
0[

#657464
0$

#660000
0!
0'
0(

#660802
0)

#665000
1!
1'
1(

#665802
1)

#665902
0*
1-
1.
b10 :
0=
0>
0@
1A
1B

#670000
0!
0'
0(

#670802
0)

#675000
1!
1'
1(

#675802
1)

#675902
1*
0.
b11 :
1=
1>
1@
0A
0B

#680000
0!
0'
0(

#680802
0)

#685000
1!
1'
1(

#685802
1)

#685902
0*
1,
0-
1.
b100 :
0<
0=
0>
0?
1@
0A
1B

#690000
0!
0'
0(

#690802
0)

#695000
1!
1'
1(

#695802
1)

#695902
1*
0.
b101 :
1>
1A
0B

#700000
0!
0'
0(

#700802
0)

#705000
1!
1'
1(

#705802
1)

#705902
0*
1-
1.
b110 :
0<
0=
0>
0?
1@
1A
1B

#707038
1`
1d
b1110 i

#710000
0!
0'
0(

#710802
0)

#715000
1!
1'
1(

#715802
1)

#715902
1*
0.
b111 :
1<
1=
1>
1?
0@
0A
0B

#717038
0`
0d
b1101 i

#720000
0!
0'
0(

#720802
0)

#725000
1!
1'
1(

#725802
1)

#725902
0*
1+
0,
0-
1.
b1000 :
0;
0<
0=
0>
1?
0@
0A
1B
0O

#730000
0!
0'
0(

#730802
0)

#735000
1!
1'
1(

#735802
1)

#735902
1*
0.
b1001 :
1>
1A
0B

#740000
0!
0'
0(

#740802
0)

#745000
1!
1'
1(

#745802
1)

#745902
0*
1-
1.
b1010 :
0=
0>
0@
1A
1B

#750000
0!
0'
0(

#750802
0)

#755000
1!
1'
1(

#755802
1)

#755902
1*
0.
b1011 :
1=
1>
1@
0A
0B

#760000
0!
0'
0(

#760802
0)

#765000
1!
1'
1(

#765802
1)

#765902
0*
1,
0-
1.
b1100 :
0;
0<
0=
0>
1?
1@
0A
1B
0O

#770000
0!
0'
0(

#770802
0)

#775000
1!
1'
1(

#775802
1)

#775902
1*
0.
b1101 :
1>
1A
0B

#780000
0!
0'
0(

#780802
0)

#785000
1!
1'
1(

#785802
1)

#785902
0*
1-
1.
b1110 :
0;
0<
0=
0>
1?
1@
1A
1B
0O

#787038
1`
1d
b1110 i

#790000
0!
0'
0(

#790802
0)

#795000
1!
1'
1(

#795802
1)

#795902
1*
0.
b1111 :
1;
1<
1=
1>
0?
0@
0A
0B
1O

#797038
0`
0d
b1101 i

#800000
0!
0'
0(

#800802
0)

#805000
1!
1'
1(

#805802
1)

#805902
0*
0+
0,
0-
1.
15
b10000 :
0;
0<
0=
0>
0?
0@
0A
1B
0K
0N
1O

#810000
0!
0'
0(

#810802
0)

#815000
1!
1'
1(

#815802
1)

#815902
1*
0.
b10001 :
1>
1A
0B

#820000
0!
0'
0(

#820802
0)

#825000
1!
1'
1(

#825802
1)

#825902
0*
1-
1.
b10010 :
0=
0>
0@
1A
1B

#830000
0!
0'
0(

#830802
0)

#835000
1!
1'
1(

#835802
1)

#835902
1*
0.
b10011 :
1=
1>
1@
0A
0B

#840000
0!
0'
0(

#840802
0)

#845000
1!
1'
1(

#845802
1)

#845902
0*
1,
0-
1.
b10100 :
0<
0=
0>
0?
1@
0A
1B

#850000
0!
0'
0(

#850802
0)

#855000
1!
1'
1(

#855802
1)

#855902
1*
0.
b10101 :
1>
1A
0B

#860000
0!
0'
0(

#860802
0)

#865000
1!
1'
1(

#865802
1)

#865902
0*
1-
1.
b10110 :
0<
0=
0>
0?
1@
1A
1B

#867038
1`
1d
b1110 i

#870000
0!
0'
0(

#870802
0)

#875000
1!
1'
1(

#875802
1)

#875902
1*
0.
b10111 :
1<
1=
1>
1?
0@
0A
0B

#877038
0`
0d
b1101 i

#880000
0!
0'
0(

#880802
0)

#885000
1!
1'
1(

#885802
1)

#885902
0*
1+
0,
0-
1.
b11000 :
0;
0<
0=
0>
1?
0@
0A
1B
0K
0N
1O

#890000
0!
0'
0(

#890802
0)

#895000
1!
1'
1(

#895802
1)

#895902
1*
0.
b11001 :
1>
1A
0B

#900000
0!
0'
0(

#900802
0)

#905000
1!
1'
1(

#905802
1)

#905902
0*
1-
1.
b11010 :
0=
0>
0@
1A
1B

#910000
0!
0'
0(

#910802
0)

#915000
1!
1'
1(

#915802
1)

#915902
1*
0.
b11011 :
1=
1>
1@
0A
0B

#920000
0!
0'
0(

#920802
0)

#925000
1!
1'
1(

#925802
1)

#925902
0*
1,
0-
1.
b11100 :
0;
0<
0=
0>
1?
1@
0A
1B
0K
0N
1O

#930000
0!
0'
0(

#930802
0)

#935000
1!
1'
1(

#935802
1)

#935902
1*
0.
b11101 :
1>
1A
0B

#940000
0!
0'
0(

#940802
0)

#945000
1!
1'
1(

#945802
1)

#945902
0*
1-
1.
b11110 :
0;
0<
0=
0>
1?
1@
1A
1B
0K
0N
1O

#947038
1`
1d
b1110 i

#950000
0!
0'
0(

#950802
0)

#955000
1!
1'
1(

#955802
1)

#955902
1*
0.
b11111 :
1;
1<
1=
1>
0?
0@
0A
0B
1K
1N
0O

#957038
0`
0d
b1101 i

#960000
0!
0'
0(

#960802
0)

#965000
1!
1'
1(

#965802
1)

#965902
0*
0+
0,
0-
1.
14
05
b100000 :
0;
0<
0=
0>
0?
0@
0A
1B
0J
0K
0M
1N
0O

#970000
0!
0'
0(

#970802
0)

#975000
1!
1'
1(

#975802
1)

#975902
1*
0.
b100001 :
1>
1A
0B

#980000
0!
0'
0(

#980802
0)

#985000
1!
1'
1(

#985802
1)

#985902
0*
1-
1.
b100010 :
0=
0>
0@
1A
1B

#990000
0!
0'
0(

#990802
0)

#995000
1!
1'
1(

#995802
1)

#995902
1*
0.
b100011 :
1=
1>
1@
0A
0B

#1000000
0!
0'
0(

#1000802
0)

#1005000
1!
1'
1(

#1005802
1)

#1005902
0*
1,
0-
1.
b100100 :
0<
0=
0>
0?
1@
0A
1B

#1010000
0!
0'
0(

#1010802
0)

#1015000
1!
1'
1(

#1015802
1)

#1015902
1*
0.
b100101 :
1>
1A
0B

#1020000
0!
0'
0(

#1020802
0)

#1025000
1!
1'
1(

#1025802
1)

#1025902
0*
1-
1.
b100110 :
0<
0=
0>
0?
1@
1A
1B

#1027038
1`
1d
b1110 i

#1030000
0!
0'
0(

#1030802
0)

#1035000
1!
1'
1(

#1035802
1)

#1035902
1*
0.
b100111 :
1<
1=
1>
1?
0@
0A
0B

#1037038
0`
0d
b1101 i

#1040000
0!
0'
0(

#1040802
0)

#1045000
1!
1'
1(

#1045802
1)

#1045902
0*
1+
0,
0-
1.
b101000 :
0;
0<
0=
0>
1?
0@
0A
1B
0O

#1050000
0!
0'
0(

#1050802
0)

#1055000
1!
1'
1(

#1055802
1)

#1055902
1*
0.
b101001 :
1>
1A
0B

#1060000
0!
0'
0(

#1060802
0)

#1065000
1!
1'
1(

#1065802
1)

#1065902
0*
1-
1.
b101010 :
0=
0>
0@
1A
1B

#1070000
0!
0'
0(

#1070802
0)

#1075000
1!
1'
1(

#1075802
1)

#1075902
1*
0.
b101011 :
1=
1>
1@
0A
0B

#1080000
0!
0'
0(

#1080802
0)

#1085000
1!
1'
1(

#1085802
1)

#1085902
0*
1,
0-
1.
b101100 :
0;
0<
0=
0>
1?
1@
0A
1B
0O

#1090000
0!
0'
0(

#1090802
0)

#1095000
1!
1'
1(

#1095802
1)

#1095902
1*
0.
b101101 :
1>
1A
0B

#1100000
0!
0'
0(

#1100802
0)

#1105000
1!
1'
1(

#1105802
1)

#1105902
0*
1-
1.
b101110 :
0;
0<
0=
0>
1?
1@
1A
1B
0O

#1107038
1`
1d
b1110 i

#1110000
0!
0'
0(

#1110802
0)

#1115000
1!
1'
1(

#1115802
1)

#1115902
1*
0.
b101111 :
1;
1<
1=
1>
0?
0@
0A
0B
1O

#1117038
0`
0d
b1101 i

#1120000
0!
0'
0(

#1120802
0)

#1125000
1!
1'
1(

#1125802
1)

#1125902
0*
0+
0,
0-
1.
15
b110000 :
0;
0<
0=
0>
0?
0@
0A
1B
0J
0K
0M
1N
1O

#1127038
1_
b1111 i

#1130000
0!
0'
0(

#1130802
0)

#1135000
1!
1'
1(

#1135802
1)

#1135902
1*
0.
b110001 :
1>
1A
0B

#1140000
0!
0'
0(

#1140802
0)

#1145000
1!
1'
1(

#1145802
1)

#1145902
0*
1-
1.
b110010 :
0=
0>
0@
1A
1B

#1150000
0!
0'
0(

#1150802
0)

#1155000
1!
1'
1(

#1155802
1)

#1155902
1*
0.
b110011 :
1=
1>
1@
0A
0B

#1160000
0!
0'
0(

#1160802
0)

#1165000
1!
1'
1(

#1165802
1)

#1165902
0*
1,
0-
1.
b110100 :
0<
0=
0>
0?
1@
0A
1B

#1170000
0!
0'
0(

#1170802
0)

#1175000
1!
1'
1(

#1175802
1)

#1175902
1*
0.
b110101 :
1>
1A
0B

#1180000
0!
0'
0(

#1180802
0)

#1185000
1!
1'
1(

#1185802
1)

#1185902
0*
1-
1.
b110110 :
0<
0=
0>
0?
1@
1A
1B

#1187038
0,
0-
0.
04
05
0@
0A
0B
0N
0O
1X
1`
1a
1b
1c
1d
b10 h
b0 i

#1190000
0!
0'
0(

#1190802
0)

#1195000
1!
1'
1(

#1195802
1)

#1195902
b0 :

#1196384
1.
1B
0X
0_
0`
0a
0b
0c
0d
b1 h
b1101 i

#1196486
1[

#1197464
1$

#1200000
0!
0'
0(

#1200802
0)

#1205000
1!
1'
1(

#1205802
1)

#1205902
1*
0.
b1 :
1>
1A
0B

#1206486
0[

#1207464
0$

#1210000
0!
0'
0(

#1210802
0)

#1215000
1!
1'
1(

#1215802
1)

#1215902
0*
1-
1.
b10 :
0=
0>
0@
1A
1B

#1220000
0!
0'
0(

#1220802
0)

#1225000
1!
1'
1(

#1225802
1)

#1225902
1*
0.
b11 :
1=
1>
1@
0A
0B

#1230000
0!
0'
0(

#1230802
0)

#1235000
1!
1'
1(

#1235802
1)

#1235902
0*
1,
0-
1.
b100 :
0<
0=
0>
0?
1@
0A
1B

#1240000
0!
0'
0(

#1240802
0)

#1245000
1!
1'
1(

#1245802
1)

#1245902
1*
0.
b101 :
1>
1A
0B

#1250000
0!
0'
0(

#1250802
0)

#1255000
1!
1'
1(

#1255802
1)

#1255902
0*
1-
1.
b110 :
0<
0=
0>
0?
1@
1A
1B

#1257038
1`
1d
b1110 i

#1260000
0!
0'
0(

#1260802
0)

#1265000
1!
1'
1(

#1265802
1)

#1265902
1*
0.
b111 :
1<
1=
1>
1?
0@
0A
0B

#1267038
0`
0d
b1101 i

#1270000
0!
0'
0(

#1270802
0)

#1275000
1!
1'
1(

#1275802
1)

#1275902
0*
1+
0,
0-
1.
b1000 :
0;
0<
0=
0>
1?
0@
0A
1B
0O

#1280000
0!
0'
0(

#1280802
0)

#1285000
1!
1'
1(

#1285802
1)

#1285902
1*
0.
b1001 :
1>
1A
0B

#1290000
0!
0'
0(

#1290802
0)

#1295000
1!
1'
1(

#1295802
1)

#1295902
0*
1-
1.
b1010 :
0=
0>
0@
1A
1B

#1300000
0!
0'
0(

#1300802
0)

#1305000
1!
1'
1(

#1305802
1)

#1305902
1*
0.
b1011 :
1=
1>
1@
0A
0B

#1310000
0!
0'
0(

#1310802
0)

#1315000
1!
1'
1(

#1315802
1)

#1315902
0*
1,
0-
1.
b1100 :
0;
0<
0=
0>
1?
1@
0A
1B
0O

#1320000
0!
0'
0(

#1320802
0)

#1325000
1!
1'
1(

#1325802
1)

#1325902
1*
0.
b1101 :
1>
1A
0B

#1330000
0!
0'
0(

#1330802
0)

#1335000
1!
1'
1(

#1335802
1)

#1335902
0*
1-
1.
b1110 :
0;
0<
0=
0>
1?
1@
1A
1B
0O

#1337038
1`
1d
b1110 i

#1340000
0!
0'
0(

#1340802
0)

#1345000
1!
1'
1(

#1345802
1)

#1345902
1*
0.
b1111 :
1;
1<
1=
1>
0?
0@
0A
0B
1O

#1347038
0`
0d
b1101 i

#1350000
0!
0'
0(

#1350802
0)

#1355000
1!
1'
1(

#1355802
1)

#1355902
0*
0+
0,
0-
1.
15
b10000 :
0;
0<
0=
0>
0?
0@
0A
1B
0K
0N
1O

#1360000
0!
0'
0(

#1360802
0)

#1365000
1!
1'
1(

#1365802
1)

#1365902
1*
0.
b10001 :
1>
1A
0B

#1370000
0!
0'
0(

#1370802
0)

#1375000
1!
1'
1(

#1375802
1)

#1375902
0*
1-
1.
b10010 :
0=
0>
0@
1A
1B

#1380000
0!
0'
0(

#1380802
0)

#1385000
1!
1'
1(

#1385802
1)

#1385902
1*
0.
b10011 :
1=
1>
1@
0A
0B

#1390000
0!
0'
0(

#1390802
0)

#1395000
1!
1'
1(

#1395802
1)

#1395902
0*
1,
0-
1.
b10100 :
0<
0=
0>
0?
1@
0A
1B

#1400000
0!
0'
0(

#1400802
0)

#1405000
1!
1'
1(

#1405802
1)

#1405902
1*
0.
b10101 :
1>
1A
0B

#1410000
0!
0'
0(

#1410802
0)

#1415000
1!
1'
1(

#1415802
1)

#1415902
0*
1-
1.
b10110 :
0<
0=
0>
0?
1@
1A
1B

#1417038
1`
1d
b1110 i

#1420000
0!
0'
0(

#1420802
0)

#1425000
1!
1'
1(

#1425802
1)

#1425902
1*
0.
b10111 :
1<
1=
1>
1?
0@
0A
0B

#1427038
0`
0d
b1101 i

#1430000
0!
0'
0(

#1430802
0)

#1435000
1!
1'
1(

#1435802
1)

#1435902
0*
1+
0,
0-
1.
b11000 :
0;
0<
0=
0>
1?
0@
0A
1B
0K
0N
1O

#1440000
0!
0'
0(

#1440802
0)

#1445000
1!
1'
1(

#1445802
1)

#1445902
1*
0.
b11001 :
1>
1A
0B

#1450000
0!
0'
0(

#1450802
0)

#1455000
1!
1'
1(

#1455802
1)

#1455902
0*
1-
1.
b11010 :
0=
0>
0@
1A
1B

#1460000
0!
0'
0(

#1460802
0)

#1465000
1!
1'
1(

#1465802
1)

#1465902
1*
0.
b11011 :
1=
1>
1@
0A
0B

#1470000
0!
0'
0(

#1470802
0)

#1475000
1!
1'
1(

#1475802
1)

#1475902
0*
1,
0-
1.
b11100 :
0;
0<
0=
0>
1?
1@
0A
1B
0K
0N
1O

#1480000
0!
0'
0(

#1480802
0)

#1485000
1!
1'
1(

#1485802
1)

#1485902
1*
0.
b11101 :
1>
1A
0B

#1490000
0!
0'
0(

#1490802
0)

#1495000
1!
1'
1(

#1495802
1)

#1495902
0*
1-
1.
b11110 :
0;
0<
0=
0>
1?
1@
1A
1B
0K
0N
1O

#1497038
1`
1d
b1110 i

#1500000
0!
0'
0(

#1500802
0)

#1505000
1!
1'
1(

#1505802
1)

